29.932385
30.168015
30.346146
30.417514
30.733551
30.783513
30.815637
31.263320
31.293877
31.371510
31.686577
31.843235
31.912136
32.016718
32.281698
32.293846
32.871575
32.899774
33.125688
33.395543
33.798581
33.825166
34.037308
34.298642
34.298642
34.352985
34.352985
34.381608
34.660070
34.783533
34.926032
34.981869
35.094742
35.187161
35.339647
35.525793
35.801958
35.802443
35.813672
36.002342
36.084840
36.173355
36.408525
36.493281
36.514945
36.542945
36.660865
36.664144
36.804659
36.950780
36.950780
36.982629
36.982629
37.029048
37.058261
37.118601
37.165667
37.327599
37.407309
37.460101
37.565322
37.600881
37.639216
37.784028
37.890019
38.006552
38.183434
38.456136
38.478350
38.566860
38.895517
38.965530
39.013890
39.197769
39.288399
39.340509
39.408181
39.489904
39.538953
39.636403
39.729441
39.878682
39.960650
40.110595
40.110595
40.156396
40.328677
40.353483
40.512767
40.575246
40.704866
40.704866
40.781266
40.919405
40.946786
41.140353
41.403612
41.586490
41.679428
41.752969
41.755736
41.927714
41.967429
42.142700
42.155661
42.211009
42.408319
42.482853
42.700443
42.806019
42.853867
42.934836
43.255094
43.271548
43.329496
43.482811
43.569923
43.603417
43.620500
43.658636
43.675683
43.817216
43.894032
43.911622
44.043241
44.180725
44.259485
44.291612
44.363846
44.417534
44.510776
44.550006
44.652887
44.736681
44.830684
44.925614
45.045334
45.045334
45.338618
45.373319
45.734865
45.734865
45.734865
45.784048
45.822259
45.886070
45.891426
45.964746
46.039435
46.083958
46.083958
46.138893
46.192056
46.260958
46.265410
46.338368
46.448332
46.484706
46.500896
46.545521
46.571869
46.678910
46.721121
46.783342
46.783342
46.844228
46.845716
46.930588
46.947658
46.947658
46.947658
46.962543
46.962543
46.980804
46.980804
46.980804
46.980804
46.980804
46.980804
46.997565
46.997565
46.997565
47.014717
47.117214
47.168507
47.168507
47.168507
47.168507
47.176440
47.176440
47.192000
47.209763
47.232573
47.232573
47.232573
47.236159
47.236159
47.236159
47.236159
47.236159
47.236159
47.236159
47.266605
47.300065
47.323651
47.389516
47.401980
47.404003
47.404003
47.460363
47.482743
47.482743
47.482743
47.511989
47.511989
47.511989
47.511989
47.511989
47.511989
47.531086
47.531086
47.531086
47.531086
47.567857
47.574208
47.574208
47.574208
47.574208
47.574208
47.574208
47.574208
47.574208
47.622316
47.622316
47.622316
47.622316
47.622316
47.622316
47.622316
47.622316
47.622316
47.622316
47.622316
47.667745
47.668270
47.668270
47.671392
47.671392
47.671392
47.671392
47.671392
47.671392
47.671392
47.671392
47.671392
47.671392
47.671392
47.697140
47.697140
47.697813
47.737493
47.737493
47.737493
47.737493
47.783855
47.783855
47.788263
47.788263
47.788263
47.788263
47.788263
47.788263
47.788263
47.830431
47.830431
47.830431
47.830431
47.830431
47.830431
47.830431
47.830431
47.830431
47.843159
47.843159
47.843159
47.886360
47.886360
47.886360
47.886360
47.886360
47.891378
47.891378
47.922008
47.922008
47.922008
47.922008
47.922008
47.922599
47.969092
48.020394
48.046951
48.119389
48.119389
48.119389
48.129002
48.146019
48.146019
48.146019
48.146019
48.193483
48.193483
48.193483
48.223043
48.223043
48.223043
48.231543
48.231543
48.244759
48.264572
48.264572
48.264572
48.277479
48.277479
48.277479
48.277479
48.277479
48.277479
48.277479
48.277479
48.277479
48.277479
48.299392
48.299392
48.299392
48.299392
48.299392
48.299392
48.323067
48.323067
48.323067
48.323067
48.323067
48.338992
48.338992
48.338992
48.367671
48.367671
48.402681
48.402681
48.402681
48.402681
48.402681
48.408729
48.408729
48.408729
48.408729
48.408729
48.408729
48.408729
48.408729
48.408729
48.408729
48.408729
48.408729
48.408729
48.408729
48.408729
48.408729
48.408729
48.408729
48.408729
48.408729
48.408729
48.408729
48.408729
48.408729
48.408729
48.408729
48.408729
48.408729
48.408729
48.408729
48.408729
48.408729
48.408729
48.408729
48.408729
48.408729
48.408729
48.408729
48.408729
48.411537
48.411537
48.411537
48.411537
48.411537
48.411537
48.412641
48.412641
48.412641
48.446805
48.446805
48.446805
48.446805
48.446805
48.446805
48.446805
48.446805
48.450052
48.450052
48.450052
48.450052
48.450052
48.450052
48.450052
48.459887
48.459887
48.459887
48.459887
48.459887
48.459887
48.459887
48.459887
48.459887
48.459887
48.459887
48.459887
48.459887
48.459887
48.459887
48.459887
48.474851
48.474851
48.474851
48.474851
48.474851
48.487437
48.505204
48.505204
48.505204
48.505204
48.505204
48.505204
48.505204
48.505204
48.505204
48.505204
48.505204
48.528303
48.528303
48.528303
48.528303
48.528303
48.529448
48.529448
48.529448
48.529448
48.530226
48.530226
48.530226
48.530226
48.530226
48.530226
48.530995
48.530995
48.530995
48.530995
48.530995
48.530995
48.530995
48.530995
48.530995
48.531118
48.531118
48.531118
48.531118
48.531118
48.531118
48.531118
48.531118
48.531118
48.531118
48.531118
48.531118
48.538317
48.538317
48.552744
48.560427
48.560427
48.560427
48.560427
48.560427
48.560427
48.560427
48.560427
48.560427
48.560427
48.560427
48.560427
48.560427
48.605288
48.605288
48.606543
48.606543
48.606543
48.606543
48.606543
48.606543
48.613464
48.613464
48.613464
48.613464
48.613464
48.613464
48.629222
48.629222
48.629222
48.638843
48.638843
48.638843
48.638843
48.639018
48.639018
48.639018
48.639018
48.639018
48.639018
48.639018
48.639018
48.639018
48.639018
48.639018
48.640042
48.640042
48.640042
48.640042
48.640042
48.655973
48.655973
48.698536
48.698536
48.698536
48.698536
48.713343
48.713343
48.725622
48.725622
48.725622
48.725622
48.725622
48.725622
48.725622
48.725622
48.733296
48.733296
48.733296
48.733296
48.733296
48.733296
48.733296
48.744269
48.744269
48.744269
48.744269
48.744269
48.744269
48.744269
48.744269
48.747033
48.747033
48.747033
48.747033
48.747033
48.747033
48.747033
48.747033
48.747033
48.747033
48.747033
48.747033
48.747033
48.747033
48.747033
48.747033
48.747033
48.747033
48.747033
48.747033
48.747033
48.748560
48.748560
48.748560
48.748560
48.748560
48.748560
48.748560
48.748560
48.748560
48.748560
48.748560
48.753126
48.753126
48.753126
48.753126
48.762129
48.762129
48.762129
48.762129
48.762129
48.762771
48.762771
48.762771
48.772313
48.816848
48.816848
48.816848
48.816848
48.827744
48.847385
48.847385
48.847385
48.847385
48.847385
48.847385
48.848496
48.853871
48.853871
48.864061
48.864061
48.864061
48.864061
48.864061
48.864061
48.864061
48.864061
48.870760
48.870760
48.886166
48.886166
48.890990
48.928641
48.928641
48.928641
48.928641
48.928641
48.928641
48.928641
48.928641
48.928641
48.928641
48.928641
48.928641
48.928641
48.928641
48.928641
48.973722
48.973722
48.973722
48.973722
48.973722
48.974507
48.974507
48.974507
48.974507
48.974507
48.974507
48.974507
48.974507
48.974507
48.974507
48.974507
48.974507
48.974507
48.974507
48.974507
48.974507
48.975982
48.975982
48.975982
48.982600
48.982600
48.982600
48.982600
48.982600
48.982600
48.982600
48.982600
48.982600
48.982852
48.982852
48.982852
48.982852
48.982852
48.982852
48.982852
48.982852
48.982852
48.982852
48.982852
48.982852
48.982852
48.982852
48.982852
48.982852
48.982852
48.982852
48.982852
48.982852
48.982852
48.982852
48.982852
48.982852
48.982852
48.982852
48.982852
49.013802
49.013802
49.013802
49.013802
49.013802
49.013802
49.013802
49.017838
49.017838
49.017838
49.017838
49.017838
49.017838
49.017838
49.017838
49.017838
49.018090
49.018090
49.025582
49.025582
49.025582
49.064622
49.064622
49.064622
49.064622
49.064622
49.064622
49.064622
49.064622
49.064622
49.064622
49.064622
49.064622
49.064622
49.064622
49.064622
49.064622
49.064622
49.064622
49.064622
49.064622
49.064622
49.064622
49.064622
49.064622
49.064622
49.064622
49.064622
49.064622
49.064622
49.064622
49.064622
49.070180
49.070180
49.070180
49.070180
49.070180
49.070180
49.070180
49.070180
49.070180
49.070180
49.072745
49.072745
49.072745
49.072745
49.072745
49.072745
49.072745
49.072745
49.072745
49.072745
49.072745
49.072745
49.072745
49.072745
49.072745
49.072745
49.072745
49.072745
49.072745
49.072745
49.072745
49.072745
49.072745
49.072745
49.072745
49.072745
49.076282
49.106616
49.106616
49.106616
49.106616
49.106616
49.106616
49.106616
49.106616
49.106616
49.106616
49.151055
49.151979
49.153976
49.153976
49.153976
49.153976
49.153976
49.153976
49.153976
49.153976
49.153976
49.153976
49.153976
49.153976
49.153976
49.153976
49.153976
49.153976
49.153976
49.153976
49.153976
49.153976
49.153976
49.153976
49.153976
49.153976
49.165866
49.165866
49.165866
49.165866
49.165866
49.165866
49.165866
49.165866
49.165866
49.166780
49.168319
49.168319
49.168319
49.168319
49.168319
49.168319
49.168319
49.168319
49.168319
49.168319
49.168319
49.168319
49.171586
49.171586
49.173962
49.173962
49.173962
49.173962
49.173962
49.173962
49.173962
49.173962
49.173962
49.173962
49.173962
49.173962
49.173962
49.173962
49.173962
49.173962
49.173962
49.173962
49.173962
49.173962
49.173962
49.173962
49.173962
49.173962
49.173962
49.173962
49.173962
49.173962
49.173962
49.173962
49.173962
49.173962
49.173962
49.173962
49.173962
49.173962
49.173962
49.173962
49.173962
49.195732
49.195732
49.195732
49.195732
49.195732
49.195732
49.195732
49.195732
49.195732
49.195732
49.195732
49.195732
49.195732
49.195732
49.195732
49.195732
49.195732
49.195732
49.195732
49.195732
49.195732
49.195732
49.195732
49.195732
49.195732
49.195732
49.195732
49.195732
49.195732
49.195732
49.195732
49.195732
49.195732
49.195732
49.195732
49.195732
49.195732
49.195732
49.195732
49.195732
49.195732
49.195732
49.195732
49.195732
49.195732
49.195732
49.195732
49.195732
49.195732
49.195732
49.195732
49.195732
49.195732
49.195732
49.195732
49.195732
49.195732
49.195732
49.195732
49.195732
49.195732
49.195732
49.195732
49.195732
49.195732
49.195732
49.195732
49.195732
49.195732
49.195732
49.195732
49.195732
49.195732
49.195732
49.195732
49.195732
49.195899
49.199763
49.199763
49.199763
49.199763
49.199763
49.199763
49.199763
49.199763
49.199763
49.199763
49.199763
49.199763
49.199763
49.199763
49.199763
49.199763
49.202555
49.202555
49.202555
49.202555
49.205403
49.205403
49.205403
49.205403
49.205411
49.205411
49.205411
49.205411
49.205411
49.205411
49.205411
49.205411
49.205411
49.222010
49.222010
49.222010
49.222010
49.222010
49.222010
49.222010
49.222010
49.222010
49.222010
49.222010
49.222010
49.222010
49.222010
49.222010
49.222010
49.242183
49.245648
49.245648
49.245648
49.245648
49.245648
49.245648
49.245648
49.245648
49.245648
49.245648
49.245648
49.245648
49.245648
49.245648
49.245648
49.245648
49.245648
49.253074
49.253074
49.253074
49.253074
49.253074
49.253074
49.253074
49.253074
49.253074
49.253074
49.253074
49.253074
49.253074
49.253074
49.253074
49.253074
49.253074
49.253074
49.253074
49.253074
49.253074
49.253074
49.253074
49.253074
49.253074
49.253074
49.253074
49.253074
49.253074
49.253074
49.253074
49.253074
49.253074
49.253074
49.253074
49.253074
49.268093
49.268093
49.268093
49.268093
49.268093
49.268093
49.268093
49.268093
49.268093
49.268093
49.268093
49.268093
49.268093
49.268093
49.268093
49.268093
49.268093
49.268093
49.268093
49.268093
49.268093
49.268093
49.268093
49.269270
49.269270
49.269703
49.269703
49.269703
49.269703
49.269703
49.269703
49.269703
49.269703
49.269703
49.269703
49.269703
49.269703
49.275768
49.275768
49.275768
49.275768
49.275768
49.275768
49.275768
49.275768
49.275768
49.275768
49.275768
49.275768
49.275768
49.275768
49.275768
49.275768
49.276347
49.276347
49.292111
49.292111
49.292111
49.292111
49.292111
49.292111
49.292111
49.293627
49.293627
49.293627
49.293627
49.293627
49.293627
49.293627
49.293627
49.293627
49.293627
49.293627
49.293627
49.293627
49.293627
49.293627
49.293627
49.293627
49.293627
49.293627
49.301629
49.301629
49.301745
49.314270
49.314270
49.314270
49.314270
49.314270
49.314270
49.331912
49.331912
49.331912
49.331912
49.331912
49.331912
49.331912
49.331912
49.331912
49.331912
49.331912
49.331912
49.331912
49.331912
49.331912
49.347591
49.347591
49.347591
49.347591
49.347591
49.352475
49.352475
49.352475
49.352475
49.352657
49.352657
49.352657
49.352657
49.352657
49.352657
49.352657
49.352657
49.352657
49.352657
49.352657
49.352657
49.352657
49.352657
49.352657
49.352657
49.352657
49.352657
49.352657
49.352657
49.352657
49.352657
49.352657
49.352657
49.352657
49.352657
49.352657
49.352657
49.352657
49.353343
49.353343
49.353343
49.353343
49.353343
49.359330
49.359330
49.359330
49.359330
49.359330
49.359330
49.359330
49.359330
49.359330
49.359330
49.359330
49.359330
49.359330
49.359330
49.359330
49.359330
49.359330
49.359330
49.359330
49.359330
49.359330
49.359330
49.359330
49.359330
49.359330
49.359330
49.359330
49.359330
49.359330
49.359330
49.359330
49.359330
49.359330
49.359330
49.359330
49.359330
49.360984
49.360984
49.360984
49.360984
49.360984
49.360984
49.360984
49.360984
49.360984
49.360984
49.360984
49.360984
49.360984
49.360984
49.360984
49.360984
49.360984
49.360984
49.360984
49.360984
49.360984
49.360984
49.360984
49.360984
49.360984
49.360984
49.360984
49.360984
49.360984
49.360984
49.360984
49.360984
49.361213
49.361213
49.361213
49.361213
49.361213
49.364104
49.364104
49.364104
49.364104
49.364104
49.364104
49.364104
49.364104
49.364104
49.364104
49.364104
49.364104
49.364104
49.364104
49.364104
49.364104
49.364104
49.364104
49.364104
49.364104
49.368573
49.392812
49.392812
49.392812
49.392812
49.392812
49.392812
49.392812
49.392812
49.392812
49.392812
49.392812
49.392812
49.392812
49.392812
49.392812
49.392812
49.392812
49.392812
49.392812
49.392812
49.392812
49.392812
49.392812
49.392812
49.392812
49.392812
49.392812
49.392812
49.392812
49.392812
49.392812
49.416178
49.416178
49.416178
49.416178
49.416178
49.416178
49.416178
49.416178
49.416178
49.416178
49.416178
49.416178
49.416178
49.416178
49.416178
49.416178
49.416178
49.416178
49.416178
49.416178
49.416178
49.416323
49.416323
49.416323
49.416323
49.416323
49.416323
49.416323
49.416323
49.416323
49.416323
49.416323
49.416323
49.416323
49.416323
49.416323
49.416323
49.416323
49.416323
49.416323
49.416323
49.427290
49.428829
49.428829
49.428829
49.428829
49.428829
49.436897
49.436897
49.436897
49.436897
49.436897
49.436897
49.436897
49.436897
49.436897
49.436897
49.436897
49.436897
49.436897
49.436897
49.436897
49.436897
49.436897
49.436897
49.436897
49.436897
49.436897
49.436897
49.436897
49.436897
49.436897
49.436897
49.436897
49.436897
49.436897
49.436897
49.436897
49.436897
49.436897
49.436897
49.436897
49.436897
49.436897
49.441768
49.441768
49.441768
49.441768
49.441768
49.441768
49.441768
49.441768
49.441768
49.441768
49.441768
49.441768
49.441768
49.441768
49.441768
49.441768
49.448438
49.448438
49.448438
49.448438
49.448438
49.448438
49.448438
49.448438
49.448438
49.448438
49.448438
49.448438
49.448438
49.448438
49.448438
49.448438
49.448438
49.448438
49.448438
49.448438
49.448438
49.448438
49.448438
49.448438
49.448438
49.448438
49.448438
49.448438
49.448438
49.448438
49.448438
49.448438
49.448438
49.448438
49.448438
49.448438
49.448438
49.448438
49.448438
49.448438
49.448438
49.449782
49.465066
49.465066
49.465066
49.465066
49.465066
49.465066
49.465066
49.465066
49.466720
49.466720
49.475559
49.475559
49.475559
49.475559
49.475559
49.475559
49.475559
49.475559
49.475559
49.475559
49.475559
49.475559
49.475559
49.475559
49.478620
49.478620
49.478620
49.508186
49.508186
49.508186
49.508186
49.508186
49.508186
49.508186
49.508186
49.508186
49.508186
49.508186
49.508186
49.508186
49.508186
49.508186
49.508186
49.508186
49.508186
49.508186
49.508186
49.508186
49.508186
49.508186
49.508186
49.508186
49.508186
49.508186
49.508186
49.508186
49.508186
49.508186
49.508186
49.508186
49.508186
49.508186
49.508186
49.508186
49.508186
49.508186
49.508186
49.508186
49.508186
49.508186
49.508186
49.508186
49.508186
49.508186
49.508186
49.508186
49.508186
49.508186
49.508186
49.508186
49.508186
49.508186
49.508186
49.508186
49.508186
49.508186
49.508186
49.508186
49.508186
49.508186
49.508186
49.508186
49.508186
49.508186
49.508186
49.508186
49.524058
49.524058
49.524058
49.524058
49.524058
49.524058
49.524058
49.524058
49.524058
49.524058
49.524058
49.524058
49.524058
49.524058
49.524058
49.524058
49.524058
49.524598
49.524598
49.524598
49.524598
49.524598
49.524598
49.524598
49.524598
49.524598
49.524598
49.524598
49.524598
49.524598
49.524598
49.524598
49.524598
49.524598
49.524844
49.524844
49.524844
49.524844
49.524844
49.524844
49.524844
49.524844
49.524844
49.524844
49.524844
49.524844
49.524844
49.524844
49.524844
49.524844
49.524844
49.524844
49.524844
49.524844
49.524844
49.524844
49.524844
49.524844
49.524844
49.524844
49.524844
49.524844
49.524844
49.524844
49.524844
49.524844
49.524844
49.524844
49.524844
49.526635
49.526635
49.526635
49.526635
49.526635
49.526635
49.526635
49.526635
49.526635
49.526635
49.526635
49.526635
49.526635
49.526635
49.526635
49.526635
49.526635
49.526635
49.526635
49.526635
49.526635
49.526635
49.526635
49.526635
49.526635
49.526635
49.526635
49.526635
49.526635
49.526635
49.526635
49.526635
49.526635
49.526635
49.526635
49.526635
49.526635
49.526635
49.526635
49.526635
49.526635
49.526635
49.526635
49.526635
49.526635
49.526635
49.526635
49.526635
49.526635
49.526635
49.526635
49.526635
49.526635
49.526635
49.526635
49.526635
49.526635
49.526635
49.526635
49.526635
49.526635
49.526635
49.526635
49.526635
49.526635
49.526635
49.526635
49.550876
49.550876
49.562495
49.562495
49.562495
49.562495
49.562495
49.562495
49.562495
49.562495
49.562495
49.562495
49.562495
49.562495
49.562495
49.562495
49.562495
49.562495
49.562495
49.562495
49.562495
49.562495
49.562495
49.562495
49.562495
49.562495
49.562495
49.562495
49.584130
49.584130
49.584130
49.585135
49.585135
49.585135
49.585135
49.585135
49.585135
49.585135
49.585135
49.585135
49.585135
49.585135
49.585135
49.585135
49.585135
49.585135
49.585135
49.585135
49.585135
49.585135
49.585135
49.585135
49.585135
49.585135
49.585135
49.589242
49.589242
49.589242
49.589242
49.589242
49.589242
49.589242
49.589242
49.589242
49.589242
49.589242
49.589242
49.589242
49.589242
49.589242
49.589242
49.589242
49.589242
49.595325
49.595325
49.595325
49.595325
49.595325
49.595325
49.595325
49.595325
49.595325
49.595325
49.595325
49.595325
49.595325
49.595325
49.599357
49.599357
49.599357
49.599357
49.599357
49.599357
49.599357
49.599357
49.599357
49.599357
49.599357
49.599357
49.599357
49.599357
49.599357
49.599357
49.599357
49.599357
49.599357
49.599357
49.599357
49.599357
49.599357
49.599357
49.599357
49.599357
49.599357
49.599357
49.599357
49.599357
49.599357
49.599357
49.599357
49.599357
49.599357
49.599357
49.599357
49.599357
49.599357
49.599357
49.599357
49.599357
49.599357
49.599357
49.599357
49.599357
49.599357
49.599357
49.599357
49.599357
49.599357
49.599357
49.599357
49.599357
49.599357
49.599357
49.599357
49.599357
49.599357
49.599357
49.599357
49.600412
49.600412
49.600412
49.600412
49.600412
49.600412
49.600412
49.600412
49.600412
49.600412
49.600412
49.600412
49.600412
49.600412
49.600412
49.600412
49.600412
49.600412
49.600412
49.600412
49.600412
49.600412
49.600412
49.600412
49.600412
49.600412
49.600412
49.600412
49.600412
49.600412
49.600412
49.600412
49.600541
49.600541
49.600541
49.600541
49.600541
49.600541
49.600541
49.600541
49.600541
49.602426
49.608021
49.608021
49.608021
49.608021
49.608021
49.608021
49.608021
49.608021
49.608021
49.608021
49.608021
49.608021
49.608021
49.608021
49.608021
49.608021
49.608021
49.608021
49.608021
49.608021
49.608021
49.608021
49.608021
49.620497
49.620497
49.620497
49.620497
49.620497
49.620497
49.620497
49.620497
49.620497
49.620497
49.620497
49.620497
49.620497
49.620497
49.620497
49.620497
49.620497
49.620497
49.620497
49.620497
49.620497
49.620497
49.620497
49.620497
49.620497
49.620497
49.620497
49.620497
49.620497
49.620497
49.620497
49.620497
49.620497
49.620497
49.620497
49.620497
49.620497
49.620497
49.620497
49.620497
49.620497
49.620497
49.620497
49.620497
49.620497
49.620497
49.620497
49.620497
49.620497
49.620598
49.620598
49.620598
49.620598
49.620598
49.620598
49.620598
49.620598
49.620598
49.620598
49.620598
49.620598
49.620603
49.620603
49.620603
49.620603
49.620603
49.620603
49.620603
49.620603
49.620603
49.620827
49.620827
49.620827
49.621691
49.621691
49.621691
49.621691
49.638821
49.638821
49.638821
49.638821
49.638821
49.638821
49.638821
49.638821
49.638821
49.638821
49.640721
49.642857
49.642857
49.642857
49.642857
49.642857
49.642857
49.642857
49.644619
49.644619
49.644619
49.644619
49.644619
49.644619
49.644619
49.644619
49.644619
49.644619
49.644619
49.644619
49.644619
49.644619
49.644619
49.644619
49.644619
49.644619
49.644619
49.644619
49.644619
49.645935
49.645935
49.645935
49.645935
49.645935
49.645935
49.645935
49.645935
49.645935
49.645935
49.645935
49.645935
49.645935
49.645935
49.645935
49.645935
49.645935
49.645935
49.645935
49.645935
49.645935
49.645935
49.645935
49.646105
49.646105
49.646105
49.646105
49.646105
49.646105
49.646105
49.646105
49.646105
49.646105
49.646105
49.646105
49.646105
49.646105
49.646105
49.646105
49.646105
49.646105
49.646105
49.646105
49.646105
49.646105
49.648815
49.648815
49.648815
49.651654
49.651654
49.651654
49.653336
49.653336
49.653336
49.653488
49.653488
49.653488
49.653488
49.653488
49.653488
49.653488
49.653488
49.653488
49.653488
49.653488
49.653488
49.653488
49.653488
49.662947
49.662947
49.662947
49.663837
49.663837
49.663837
49.663837
49.666038
49.666038
49.666038
49.666038
49.666038
49.666038
49.666038
49.666038
49.666038
49.667327
49.667327
49.667327
49.667327
49.667327
49.667327
49.667327
49.667327
49.667327
49.667327
49.667327
49.667327
49.667327
49.667327
49.667327
49.667327
49.672183
49.672183
49.672183
49.672183
49.672183
49.672183
49.672183
49.672183
49.672183
49.672183
49.672183
49.672183
49.672183
49.672183
49.672183
49.672183
49.672183
49.672183
49.672183
49.672183
49.672183
49.672183
49.672183
49.672183
49.672183
49.672183
49.672183
49.672183
49.672183
49.672183
49.682485
49.682485
49.682485
49.682485
49.682485
49.682485
49.682485
49.682485
49.682485
49.682485
49.682485
49.682485
49.682485
49.682485
49.682485
49.682485
49.682485
49.682485
49.682485
49.682485
49.682485
49.682485
49.682485
49.682485
49.682485
49.682485
49.682485
49.694313
49.694313
49.694313
49.694313
49.694313
49.694313
49.694313
49.694313
49.694313
49.694313
49.694313
49.694313
49.694313
49.694313
49.694313
49.694313
49.694313
49.694313
49.694313
49.694313
49.694313
49.694313
49.694313
49.694313
49.694313
49.696058
49.696058
49.696058
49.696058
49.696058
49.696058
49.696058
49.696058
49.696058
49.696058
49.696058
49.696058
49.696058
49.696058
49.696058
49.696058
49.696058
49.696058
49.696058
49.696058
49.696058
49.720853
49.720853
49.720853
49.720853
49.720853
49.720853
49.725747
49.725747
49.725747
49.725747
49.725747
49.725747
49.725747
49.725747
49.725747
49.725747
49.725747
49.725747
49.725747
49.725747
49.725747
49.725747
49.725747
49.725747
49.725747
49.725747
49.725747
49.725747
49.725747
49.725747
49.725747
49.725747
49.725747
49.725747
49.725747
49.725747
49.725747
49.725747
49.725747
49.725747
49.725747
49.725747
49.725747
49.725747
49.729242
49.729242
49.729242
49.729242
49.729242
49.729242
49.729242
49.729242
49.729242
49.729242
49.729242
49.729242
49.729242
49.729242
49.729242
49.729242
49.729242
49.729242
49.729242
49.729242
49.729242
49.729242
49.729242
49.729242
49.729242
49.729242
49.729242
49.729242
49.729242
49.729242
49.729242
49.729242
49.729242
49.729242
49.729242
49.729242
49.729357
49.729357
49.729357
49.729357
49.729357
49.729357
49.729357
49.729357
49.729357
49.729357
49.729357
49.729403
49.729403
49.729403
49.729403
49.729403
49.729403
49.731508
49.731508
49.731508
49.731508
49.731508
49.731508
49.731508
49.731508
49.731508
49.731508
49.731508
49.731508
49.731508
49.731508
49.731508
49.731508
49.731508
49.731508
49.731508
49.731923
49.731923
49.731923
49.731923
49.731923
49.731923
49.731923
49.738627
49.738627
49.738627
49.738627
49.738627
49.738627
49.742176
49.742176
49.742176
49.742176
49.742176
49.742176
49.742176
49.742176
49.742176
49.742176
49.742176
49.742176
49.742176
49.742176
49.742176
49.742176
49.742176
49.742176
49.742176
49.742176
49.742176
49.742176
49.742176
49.742176
49.742176
49.742176
49.742176
49.742176
49.742176
49.742176
49.742176
49.742176
49.742176
49.742176
49.742176
49.742176
49.742176
49.742176
49.742176
49.742176
49.742176
49.742176
49.742176
49.742176
49.742176
49.742176
49.742176
49.742176
49.742176
49.742176
49.742176
49.742176
49.742176
49.742176
49.742176
49.742176
49.742176
49.742176
49.742176
49.742176
49.742176
49.742176
49.742176
49.742176
49.742176
49.742176
49.742176
49.742176
49.742176
49.742176
49.742176
49.742176
49.742176
49.742176
49.742176
49.742176
49.742176
49.742176
49.742176
49.742176
49.742176
49.742176
49.751032
49.751032
49.751032
49.753834
49.753834
49.753834
49.753834
49.753834
49.753834
49.753834
49.753834
49.753870
49.754593
49.754593
49.754593
49.754593
49.754593
49.754593
49.754593
49.761279
49.761279
49.761279
49.761279
49.761279
49.761279
49.761279
49.761279
49.761279
49.761279
49.761279
49.761279
49.761279
49.761279
49.761279
49.761279
49.761279
49.761279
49.761279
49.761279
49.761279
49.761279
49.761279
49.761279
49.761279
49.761279
49.761279
49.761279
49.761279
49.761279
49.761279
49.761279
49.761279
49.761279
49.761279
49.761279
49.761279
49.761279
49.761279
49.761279
49.761279
49.761279
49.761279
49.761279
49.761279
49.761279
49.761279
49.761279
49.761279
49.761279
49.761279
49.761279
49.761279
49.761279
49.761279
49.761445
49.761445
49.761445
49.761445
49.761445
49.761445
49.761445
49.761445
49.761445
49.761445
49.761445
49.761445
49.761445
49.761445
49.761445
49.761445
49.761445
49.761445
49.761531
49.761531
49.761531
49.761531
49.761531
49.761531
49.761531
49.761531
49.764058
49.764058
49.764058
49.764058
49.764058
49.764058
49.764058
49.764058
49.764058
49.764058
49.764058
49.764058
49.764058
49.764058
49.764058
49.764058
49.764058
49.764058
49.764058
49.764058
49.764058
49.764058
49.764058
49.764058
49.764058
49.764058
49.764058
49.764058
49.764491
49.764491
49.764491
49.764491
49.764491
49.764491
49.764491
49.764491
49.764491
49.764491
49.775532
49.775532
49.775532
49.776134
49.776134
49.776134
49.776134
49.776134
49.776134
49.776134
49.776134
49.776134
49.776134
49.776134
49.776134
49.776134
49.776134
49.776134
49.776134
49.776134
49.776134
49.776134
49.776134
49.776134
49.776134
49.776134
49.776134
49.776134
49.776134
49.776134
49.776134
49.776134
49.776134
49.776134
49.776134
49.776134
49.776134
49.776134
49.776134
49.776134
49.776134
49.777403
49.777403
49.777403
49.777403
49.777403
49.777403
49.777403
49.777403
49.777403
49.777403
49.777403
49.777403
49.777403
49.777403
49.777403
49.777403
49.777403
49.777403
49.777403
49.777403
49.777403
49.777403
49.777403
49.777403
49.777403
49.777403
49.777403
49.777403
49.777403
49.777403
49.777403
49.777403
49.777403
49.777403
49.777403
49.777403
49.777403
49.777403
49.777403
49.777638
49.777638
49.777638
49.777638
49.777638
49.777638
49.777638
49.777638
49.777638
49.777638
49.777638
49.777638
49.777638
49.777638
49.777638
49.777638
49.777638
49.777638
49.777638
49.777638
49.777638
49.777638
49.777638
49.777638
49.777638
49.777638
49.777638
49.777638
49.777638
49.777638
49.777638
49.777638
49.777638
49.777638
49.777971
49.777971
49.777971
49.777971
49.777971
49.777971
49.777971
49.777971
49.777971
49.777971
49.777971
49.777971
49.777971
49.777971
49.777971
49.777971
49.777971
49.777971
49.777971
49.777971
49.777971
49.777971
49.781058
49.781058
49.781058
49.781058
49.781058
49.781058
49.781058
49.781058
49.781058
49.781058
49.781058
49.781058
49.781058
49.781058
49.781058
49.781058
49.781058
49.781058
49.781058
49.781058
49.781058
49.781058
49.781058
49.781058
49.781058
49.781058
49.781058
49.781058
49.781058
49.781058
49.781058
49.781058
49.781058
49.781058
49.781058
49.781559
49.781559
49.783567
49.783567
49.783567
49.783567
49.783567
49.783567
49.783567
49.783567
49.783567
49.783567
49.783567
49.783567
49.783567
49.783567
49.783567
49.783567
49.783567
49.783567
49.783567
49.783567
49.783567
49.786334
49.786334
49.786334
49.786334
49.786334
49.786334
49.786334
49.786334
49.786334
49.788744
49.788744
49.788744
49.789490
49.789490
49.793121
49.793121
49.793121
49.793121
49.793121
49.793121
49.793121
49.793121
49.793121
49.793121
49.793121
49.793121
49.793121
49.793121
49.793121
49.793121
49.793121
49.793121
49.793121
49.793121
49.793121
49.793121
49.793121
49.797955
49.797955
49.797955
49.797955
49.797955
49.797955
49.797955
49.797955
49.797955
49.797955
49.797955
49.797955
49.797955
49.797955
49.797955
49.797955
49.797955
49.797955
49.797955
49.797955
49.797955
49.797955
49.797955
49.797955
49.797955
49.797955
49.797955
49.797955
49.797955
49.797955
49.797955
49.797955
49.797955
49.797955
49.797955
49.797955
49.797955
49.797955
49.797955
49.797955
49.797955
49.797955
49.797955
49.797955
49.797955
49.797955
49.797955
49.797955
49.797955
49.797955
49.797955
49.797955
49.797955
49.797955
49.797955
49.797955
49.797955
49.797955
49.797955
49.797955
49.797955
49.797955
49.797955
49.797955
49.797955
49.797955
49.797955
49.797955
49.797955
49.797955
49.797955
49.797955
49.797955
49.797955
49.797955
49.797955
49.797955
49.797955
49.797955
49.797955
49.797955
49.797955
49.797955
49.797955
49.797955
49.797955
49.797955
49.797955
49.797955
49.797955
49.797955
49.797955
49.797955
49.797955
49.797955
49.797955
49.797955
49.797955
49.798188
49.804538
49.804538
49.804538
49.804937
49.804937
49.804937
49.804937
49.804937
49.804937
49.804937
49.804937
49.804937
49.804937
49.804937
49.804937
49.804937
49.804937
49.804937
49.809098
49.809098
49.809098
49.809098
49.809098
49.809098
49.809098
49.809098
49.809098
49.809098
49.809098
49.809098
49.809098
49.809098
49.809098
49.809098
49.809098
49.809098
49.809098
49.809098
49.809098
49.809098
49.809098
49.809098
49.809098
49.809098
49.809098
49.809098
49.809098
49.809098
49.809098
49.809098
49.809098
49.809098
49.809098
49.809098
49.809098
49.809098
49.809098
49.809098
49.809098
49.809098
49.809098
49.809098
49.809098
49.809098
49.809098
49.809098
49.809098
49.812130
49.812130
49.812130
49.812130
49.812130
49.812130
49.812130
49.812130
49.812130
49.812130
49.812130
49.812130
49.812130
49.812130
49.812130
49.812130
49.812130
49.812130
49.812130
49.812130
49.812130
49.812130
49.812130
49.812130
49.812130
49.812130
49.812130
49.812130
49.812130
49.812130
49.812130
49.812130
49.812130
49.812130
49.812130
49.812130
49.812130
49.812130
49.812130
49.812130
49.812130
49.812130
49.812130
49.812130
49.812130
49.812130
49.812130
49.814576
49.814576
49.814576
49.814576
49.814576
49.814576
49.814576
49.814576
49.814576
49.814576
49.814576
49.814576
49.814576
49.814576
49.814576
49.814576
49.814576
49.814576
49.814576
49.814576
49.814576
49.814576
49.814576
49.814576
49.814576
49.814576
49.814576
49.814576
49.814576
49.814576
49.814576
49.823009
49.823009
49.823009
49.823009
49.823204
49.823204
49.823204
49.823204
49.823204
49.823204
49.823204
49.823204
49.823204
49.823204
49.823204
49.823204
49.823204
49.823204
49.823204
49.823204
49.823204
49.823204
49.823204
49.823204
49.823204
49.823204
49.823204
49.823204
49.823204
49.823204
49.823204
49.823204
49.823204
49.823204
49.823204
49.823204
49.823204
49.823204
49.823204
49.823204
49.823204
49.823204
49.823204
49.823204
49.823204
49.823204
49.823204
49.823204
49.823204
49.823209
49.823209
49.823209
49.823293
49.823293
49.823293
49.823293
49.823293
49.827884
49.827884
49.827884
49.827884
49.827884
49.827884
49.827884
49.827884
49.827884
49.827884
49.827884
49.827884
49.827884
49.828446
49.829719
49.829719
49.829719
49.829719
49.829719
49.829719
49.829719
49.829719
49.829719
49.829719
49.829719
49.829719
49.829719
49.830373
49.830373
49.830373
49.830373
49.830373
49.830373
49.840136
49.840136
49.840136
49.840136
49.840136
49.840136
49.840136
49.840136
49.840136
49.840136
49.840136
49.840136
49.840136
49.840136
49.840136
49.840136
49.840136
49.840136
49.841619
49.841619
49.841619
49.841619
49.841619
49.841619
49.841619
49.841619
49.841619
49.841619
49.841619
49.841619
49.841619
49.841619
49.841619
49.841619
49.841619
49.841619
49.845059
49.845059
49.845059
49.845059
49.845059
49.845059
49.845059
49.845059
49.845059
49.845059
49.845059
49.845059
49.845059
49.845059
49.845059
49.845059
49.845059
49.845059
49.845059
49.845059
49.846264
49.846264
49.846264
49.846264
49.846264
49.846264
49.846264
49.846264
49.846264
49.846264
49.846264
49.846264
49.846264
49.846264
49.846264
49.846264
49.846264
49.846264
49.846264
49.846264
49.846305
49.846305
49.846305
49.846305
49.846305
49.846305
49.846305
49.846305
49.846305
49.846305
49.846305
49.846305
49.846305
49.846305
49.846305
49.846305
49.846305
49.846305
49.846305
49.846305
49.846305
49.846305
49.846305
49.846305
49.846305
49.846305
49.846305
49.846305
49.846305
49.847387
49.847387
49.847387
49.847387
49.847387
49.847387
49.847387
49.847387
49.847387
49.847387
49.847387
49.847387
49.847387
49.847387
49.847387
49.847387
49.847387
49.847387
49.847387
49.847387
49.847387
49.847387
49.847387
49.847387
49.847387
49.847387
49.847387
49.847387
49.847387
49.847387
49.847387
49.847387
49.847387
49.847387
49.847387
49.847387
49.847387
49.847387
49.847387
49.847387
49.847387
49.847387
49.847387
49.847387
49.847387
49.847387
49.847387
49.847387
49.847387
49.847387
49.848940
49.848940
49.848940
49.848940
49.848940
49.848940
49.848940
49.848940
49.848940
49.848940
49.848940
49.851012
49.851012
49.851012
49.851012
49.851012
49.851012
49.851012
49.851012
49.851012
49.851012
49.851012
49.851012
49.851012
49.851012
49.851012
49.851012
49.851012
49.851012
49.851012
49.851012
49.851572
49.851572
49.851572
49.851572
49.851572
49.852244
49.858933
49.858933
49.858933
49.858933
49.858933
49.858933
49.858933
49.858933
49.858933
49.858933
49.858933
49.858933
49.858933
49.858933
49.858933
49.858933
49.862574
49.862574
49.862574
49.862574
49.864625
49.864625
49.864625
49.864625
49.864625
49.864625
49.864625
49.864625
49.864625
49.864625
49.864625
49.864625
49.864625
49.871088
49.871088
49.871088
49.871088
49.871088
49.871088
49.871088
49.871088
49.871088
49.871088
49.871088
49.871088
49.871088
49.871088
49.871088
49.871088
49.871088
49.871088
49.871088
49.871088
49.871088
49.871088
49.871088
49.871088
49.871088
49.871088
49.871088
49.871088
49.871088
49.871088
49.871088
49.871088
49.871088
49.871088
49.871088
49.871088
49.871088
49.875153
49.875153
49.875451
49.875451
49.875451
49.875451
49.875451
49.875451
49.875451
49.875451
49.875451
49.875451
49.875451
49.875451
49.875451
49.875451
49.878881
49.880303
49.880303
49.880303
49.880303
49.880303
49.880303
49.881336
49.881336
49.881336
49.881336
49.881336
49.881336
49.881336
49.881336
49.881336
49.881336
49.881336
49.881336
49.881336
49.881336
49.881336
49.881336
49.881336
49.881336
49.881336
49.881336
49.881336
49.881336
49.881336
49.881336
49.881336
49.881336
49.881336
49.881336
49.882694
49.882694
49.882694
49.883124
49.883124
49.883124
49.883124
49.885001
49.885001
49.885001
49.885001
49.885001
49.885001
49.885001
49.885001
49.885001
49.885001
49.885001
49.885001
49.885001
49.885001
49.885001
49.885001
49.885001
49.885001
49.885001
49.885001
49.885001
49.885001
49.885001
49.885001
49.885001
49.885001
49.885001
49.885001
49.885001
49.885001
49.885001
49.885001
49.885001
49.885001
49.886512
49.886512
49.886512
49.886512
49.886512
49.886512
49.886512
49.886512
49.886512
49.886512
49.886512
49.886512
49.886512
49.886512
49.886512
49.886512
49.886512
49.886512
49.886770
49.886770
49.886770
49.886770
49.886770
49.886770
49.886770
49.887447
49.887447
49.887447
49.887447
49.888848
49.888848
49.888848
49.890320
49.890320
49.890320
49.890320
49.890320
49.891092
49.891092
49.891092
49.891092
49.891092
49.891092
49.891092
49.891092
49.891092
49.891092
49.891092
49.891092
49.891092
49.891092
49.891092
49.891092
49.891092
49.891092
49.891092
49.891092
49.891092
49.891092
49.891092
49.891092
49.891512
49.891512
49.891512
49.891512
49.891512
49.891512
49.891512
49.891512
49.891512
49.891512
49.891512
49.891512
49.891512
49.891512
49.891512
49.891512
49.891512
49.891512
49.891512
49.891512
49.891512
49.891512
49.891512
49.891512
49.891512
49.891512
49.891512
49.891512
49.891512
49.891512
49.891512
49.891512
49.891512
49.891512
49.891512
49.891512
49.891512
49.891512
49.891512
49.891512
49.891512
49.891512
49.891512
49.891512
49.891512
49.891512
49.894115
49.894115
49.894115
49.894115
49.895195
49.895195
49.895195
49.895195
49.895195
49.895195
49.895195
49.895195
49.895195
49.895195
49.895195
49.895195
49.895195
49.895195
49.895195
49.895195
49.895195
49.895195
49.895195
49.895195
49.895195
49.895195
49.895195
49.895195
49.895195
49.895195
49.895195
49.895195
49.895195
49.895195
49.895195
49.895195
49.895195
49.895195
49.895195
49.895195
49.895195
49.895195
49.895195
49.895195
49.895195
49.895195
49.895195
49.895195
49.895195
49.895195
49.895195
49.895195
49.895195
49.895195
49.895195
49.895195
49.895195
49.895195
49.895195
49.895195
49.895195
49.895195
49.895195
49.895195
49.895195
49.895195
49.895195
49.895195
49.895195
49.895706
49.895706
49.895706
49.895706
49.895706
49.895706
49.895706
49.895706
49.895706
49.896150
49.896150
49.896150
49.896150
49.896150
49.896150
49.896150
49.896150
49.896150
49.896150
49.896150
49.896150
49.896150
49.896150
49.896150
49.896150
49.896150
49.896150
49.896150
49.896150
49.896169
49.896169
49.896169
49.896169
49.896169
49.896169
49.896169
49.896169
49.896169
49.896169
49.896169
49.896169
49.896169
49.896169
49.896169
49.896169
49.896169
49.896169
49.896169
49.896169
49.896169
49.896169
49.896169
49.896169
49.896169
49.896169
49.896169
49.896169
49.896169
49.896169
49.896169
49.896169
49.896169
49.896169
49.896169
49.896169
49.896169
49.896169
49.896169
49.897306
49.897306
49.897306
49.897306
49.897306
49.897306
49.897306
49.897306
49.897306
49.897306
49.897306
49.897306
49.897306
49.897306
49.897306
49.897688
49.897688
49.897688
49.897688
49.897688
49.897688
49.897688
49.897688
49.897688
49.897688
49.897990
49.897990
49.897990
49.897990
49.897990
49.897990
49.897990
49.897990
49.897990
49.897990
49.897990
49.897990
49.898006
49.898006
49.898006
49.898019
49.898019
49.898019
49.898019
49.898019
49.898019
49.898019
49.898019
49.898254
49.900748
49.900748
49.900748
49.900748
49.900748
49.900748
49.900748
49.900748
49.900748
49.900748
49.900748
49.900748
49.900748
49.900748
49.900748
49.900748
49.900748
49.900748
49.900748
49.900748
49.900748
49.900748
49.900748
49.900748
49.900748
49.900748
49.900748
49.900748
49.900748
49.900748
49.900748
49.900748
49.900748
49.900748
49.900748
49.900748
49.900748
49.900748
49.900748
49.900748
49.900748
49.900748
49.900748
49.900748
49.900748
49.901140
49.901140
49.901140
49.901140
49.901140
49.901140
49.901140
49.901140
49.901140
49.903754
49.903754
49.903754
49.903754
49.903754
49.903754
49.903754
49.903754
49.903754
49.903754
49.903754
49.903754
49.903754
49.903754
49.903754
49.903754
49.903754
49.903754
49.903754
49.903754
49.903754
49.903754
49.903754
49.903754
49.903754
49.903754
49.903754
49.903754
49.903754
49.903754
49.903754
49.903754
49.903754
49.903754
49.903754
49.903754
49.903754
49.903754
49.903754
49.903754
49.903754
49.903754
49.903754
49.903754
49.903754
49.903754
49.903754
49.903754
49.903754
49.903754
49.903754
49.903754
49.903754
49.903754
49.903754
49.903754
49.903754
49.903754
49.903754
49.903754
49.903754
49.903754
49.903754
49.903754
49.903754
49.903754
49.903754
49.903754
49.903754
49.903754
49.903754
49.903754
49.905499
49.905499
49.905499
49.905499
49.905895
49.905903
49.905903
49.906727
49.906727
49.906727
49.906727
49.906727
49.906727
49.906727
49.906727
49.906727
49.906727
49.906727
49.906727
49.906727
49.906727
49.906727
49.906727
49.906727
49.906727
49.906727
49.906727
49.906727
49.906727
49.906727
49.906727
49.906727
49.906727
49.906727
49.906727
49.906727
49.906727
49.906727
49.906727
49.906727
49.906727
49.906727
49.906727
49.906727
49.906727
49.906727
49.906772
49.906772
49.906772
49.906772
49.906772
49.906772
49.906772
49.908063
49.908063
49.908063
49.908063
49.908063
49.908063
49.908063
49.908063
49.908063
49.908063
49.908063
49.908063
49.908063
49.908063
49.908063
49.908589
49.908589
49.908589
49.908589
49.908589
49.908589
49.908589
49.908589
49.908589
49.908589
49.908589
49.908589
49.908589
49.908589
49.908589
49.908589
49.908589
49.908589
49.908589
49.908589
49.908589
49.908589
49.908589
49.908589
49.909627
49.909627
49.909627
49.909627
49.909627
49.909627
49.909627
49.911700
49.911700
49.911700
49.911700
49.911700
49.911700
49.911700
49.911700
49.911700
49.911989
49.911989
49.911989
49.911989
49.911989
49.911989
49.911989
49.911989
49.911989
49.911989
49.911989
49.911989
49.911989
49.911989
49.911989
49.911989
49.911989
49.911989
49.911989
49.911989
49.911989
49.911989
49.911989
49.911989
49.911989
49.911989
49.911989
49.911989
49.911989
49.911989
49.911989
49.911989
49.913494
49.913494
49.913494
49.913494
49.913494
49.913494
49.913494
49.913494
49.913494
49.913494
49.913494
49.913494
49.913494
49.913494
49.913494
49.913494
49.913494
49.913494
49.913494
49.913494
49.913494
49.913494
49.913494
49.913494
49.913494
49.913494
49.913494
49.913494
49.913494
49.913494
49.913494
49.913494
49.913494
49.913494
49.913494
49.913494
49.913494
49.913494
49.913494
49.913494
49.913494
49.913494
49.913494
49.913494
49.913495
49.913495
49.913495
49.913495
49.913495
49.913495
49.913495
49.913495
49.913495
49.913495
49.913495
49.913495
49.913495
49.913495
49.913495
49.913495
49.913495
49.913495
49.913495
49.913495
49.913495
49.913495
49.913495
49.913495
49.913495
49.913495
49.913495
49.913495
49.913495
49.913495
49.913495
49.913495
49.913495
49.913495
49.913495
49.913495
49.913495
49.913495
49.913495
49.913495
49.913495
49.913495
49.913495
49.913495
49.913495
49.913495
49.915929
49.915929
49.915929
49.915929
49.917551
49.917551
49.917551
49.917551
49.917551
49.917551
49.917551
49.917551
49.917551
49.917551
49.917711
49.917711
49.917711
49.917711
49.917711
49.917711
49.917711
49.917711
49.917711
49.917711
49.917711
49.917711
49.917711
49.917711
49.917711
49.917711
49.917711
49.917711
49.917711
49.917711
49.917711
49.917711
49.917711
49.917711
49.917711
49.917711
49.917711
49.917711
49.917711
49.917711
49.917711
49.917711
49.917711
49.917711
49.917711
49.917711
49.917711
49.917711
49.917711
49.917711
49.917711
49.917711
49.917711
49.917711
49.917711
49.917711
49.917711
49.917711
49.917711
49.917711
49.917711
49.917711
49.917711
49.917711
49.917711
49.917711
49.917711
49.917711
49.918934
49.918934
49.918934
49.918934
49.918934
49.918934
49.918934
49.918934
49.918934
49.918934
49.918934
49.918934
49.918934
49.918934
49.918934
49.919350
49.919350
49.919350
49.919350
49.919584
49.919584
49.919584
49.919584
49.919584
49.920524
49.920524
49.920524
49.920524
49.920642
49.920642
49.920642
49.920642
49.923118
49.923118
49.923118
49.923118
49.923118
49.926351
49.926364
49.926364
49.926364
49.926364
49.926364
49.926364
49.926364
49.926364
49.926364
49.926364
49.926364
49.926364
49.926364
49.926364
49.926364
49.926364
49.926364
49.926364
49.926364
49.926364
49.926364
49.926364
49.926364
49.926364
49.926364
49.926364
49.926364
49.926364
49.926364
49.926364
49.926364
49.926364
49.926364
49.926364
49.926364
49.926364
49.926364
49.926364
49.926364
49.926364
49.926364
49.926364
49.926364
49.926364
49.926364
49.926364
49.926364
49.926364
49.926364
49.926364
49.926364
49.926364
49.926364
49.926364
49.926364
49.926364
49.926364
49.926364
49.928332
49.928332
49.928332
49.928332
49.928332
49.928332
49.928332
49.928332
49.928332
49.928332
49.928332
49.928332
49.928332
49.928332
49.928332
49.928332
49.928332
49.928332
49.928332
49.928332
49.928332
49.928332
49.928332
49.928332
49.928332
49.928332
49.928332
49.928332
49.928332
49.928332
49.928332
49.928332
49.928332
49.928509
49.928509
49.928509
49.928509
49.928509
49.928509
49.928509
49.928509
49.928509
49.928509
49.928509
49.928509
49.928509
49.928509
49.928509
49.928509
49.928509
49.928509
49.928509
49.928509
49.928509
49.928509
49.929467
49.929467
49.929467
49.929467
49.929467
49.929467
49.929467
49.929467
49.929467
49.930015
49.930015
49.932080
49.932080
49.932080
49.932080
49.932080
49.932080
49.932080
49.932080
49.932080
49.932080
49.932080
49.932080
49.932080
49.932080
49.932080
49.932080
49.932080
49.932080
49.932080
49.932080
49.932080
49.932080
49.932080
49.932080
49.932080
49.932080
49.932080
49.932080
49.932080
49.932080
49.932080
49.932080
49.932080
49.932080
49.932080
49.932080
49.932080
49.932080
49.932080
49.932080
49.932080
49.932080
49.932080
49.932080
49.932080
49.932080
49.932080
49.932080
49.932080
49.932080
49.932080
49.932080
49.932080
49.932080
49.932080
49.932080
49.932080
49.932080
49.932080
49.932080
49.932080
49.932080
49.932080
49.932080
49.932080
49.932080
49.932080
49.932080
49.932080
49.932080
49.932080
49.932080
49.932080
49.932080
49.932080
49.932080
49.932080
49.932080
49.932080
49.932080
49.932080
49.932080
49.932080
49.932080
49.932080
49.932080
49.932080
49.932080
49.932080
49.932080
49.932080
49.932080
49.932080
49.932080
49.932080
49.932080
49.932080
49.932080
49.932080
49.932080
49.932080
49.932080
49.932080
49.932080
49.932080
49.932080
49.932080
49.934151
49.934151
49.934936
49.935492
49.935492
49.935492
49.935492
49.935492
49.935492
49.935492
49.935492
49.935492
49.935492
49.935492
49.935492
49.935492
49.935492
49.935492
49.935492
49.935492
49.935492
49.935492
49.935492
49.935492
49.935492
49.935492
49.935492
49.935600
49.935614
49.935614
49.935804
49.935804
49.935804
49.935804
49.935804
49.935804
49.935804
49.935804
49.935804
49.935804
49.935804
49.935804
49.935804
49.935804
49.935804
49.935804
49.935804
49.935804
49.935804
49.935804
49.935804
49.935804
49.935804
49.935804
49.935804
49.935804
49.935804
49.935804
49.935804
49.935804
49.935804
49.935804
49.935804
49.935804
49.935804
49.935811
49.935811
49.936006
49.936006
49.936006
49.936006
49.936006
49.936006
49.936006
49.936009
49.936009
49.936015
49.936015
49.936015
49.936015
49.936015
49.936015
49.936015
49.936015
49.936015
49.936015
49.936015
49.936015
49.936015
49.936015
49.936015
49.936015
49.936015
49.936015
49.936015
49.936015
49.936015
49.936015
49.936015
49.936015
49.936015
49.936015
49.936015
49.936015
49.936015
49.936015
49.936015
49.936015
49.936015
49.936015
49.936015
49.936015
49.936015
49.936015
49.936015
49.936015
49.936015
49.936015
49.936015
49.936015
49.936015
49.936015
49.936015
49.936015
49.936015
49.936015
49.936015
49.936015
49.936015
49.936015
49.936015
49.936015
49.936015
49.936015
49.936015
49.936015
49.936015
49.936015
49.936015
49.936015
49.936015
49.936015
49.936015
49.936015
49.936015
49.936015
49.936015
49.936015
49.936015
49.936015
49.936015
49.936015
49.936015
49.936015
49.936015
49.936015
49.936015
49.936015
49.936015
49.936015
49.936015
49.936015
49.936015
49.936015
49.936015
49.936015
49.936015
49.936015
49.936015
49.936015
49.936015
49.936015
49.936015
49.936015
49.936015
49.936015
49.936015
49.936015
49.936114
49.936114
49.936114
49.936114
49.936114
49.936114
49.936114
49.936114
49.936114
49.936114
49.936114
49.936114
49.936114
49.936114
49.936114
49.936114
49.936114
49.936114
49.936114
49.936114
49.936114
49.936114
49.936114
49.936114
49.936114
49.936114
49.936114
49.936114
49.936114
49.936114
49.936114
49.936114
49.936114
49.936114
49.937319
49.937319
49.937319
49.937319
49.937319
49.937319
49.937319
49.937319
49.937319
49.937319
49.937319
49.937319
49.937319
49.937319
49.937319
49.937319
49.937319
49.937319
49.937319
49.937319
49.937319
49.937319
49.937319
49.937319
49.937319
49.937319
49.937319
49.937319
49.937319
49.937319
49.937319
49.937319
49.937319
49.937319
49.937319
49.937319
49.937319
49.937319
49.937319
49.937319
49.937319
49.937319
49.937319
49.937319
49.937319
49.937319
49.937319
49.937319
49.937319
49.937319
49.937319
49.937319
49.937319
49.937319
49.937319
49.937319
49.937319
49.937319
49.937319
49.937319
49.937319
49.937319
49.937319
49.937319
49.937402
49.937402
49.937402
49.937402
49.937402
49.937402
49.937402
49.937402
49.937402
49.937402
49.937402
49.937402
49.937402
49.937402
49.937402
49.937402
49.937402
49.937402
49.937402
49.937402
49.937402
49.937402
49.937402
49.937402
49.937402
49.937402
49.937402
49.937402
49.939173
49.939173
49.939173
49.939173
49.939173
49.939173
49.939173
49.939173
49.939173
49.939173
49.939173
49.939173
49.939173
49.939173
49.939173
49.939173
49.939173
49.939212
49.939212
49.939212
49.939212
49.939212
49.939212
49.939212
49.939212
49.939212
49.939212
49.939428
49.939428
49.939428
49.939428
49.939428
49.939428
49.939428
49.939428
49.939428
49.939428
49.939428
49.939428
49.939428
49.939428
49.939428
49.939428
49.939428
49.940843
49.940843
49.940843
49.940843
49.940843
49.940843
49.940843
49.940843
49.940843
49.940843
49.940843
49.940843
49.940843
49.940843
49.940843
49.940843
49.940843
49.940843
49.940843
49.940843
49.940843
49.940843
49.940843
49.940843
49.940843
49.940843
49.940843
49.940843
49.940843
49.940843
49.940843
49.940843
49.940843
49.940843
49.940843
49.940843
49.940843
49.940843
49.940843
49.940843
49.940843
49.940843
49.940843
49.940843
49.940843
49.940843
49.940843
49.940843
49.940843
49.940843
49.940843
49.940843
49.940843
49.940843
49.940843
49.940843
49.940843
49.940843
49.940843
49.940843
49.940843
49.940843
49.940843
49.940843
49.940843
49.940843
49.940843
49.940843
49.940843
49.940843
49.940843
49.940843
49.940843
49.940843
49.940843
49.940843
49.940843
49.940843
49.940843
49.940843
49.940843
49.940843
49.940843
49.940843
49.940843
49.940843
49.940843
49.940843
49.940843
49.940843
49.940843
49.940843
49.940843
49.940843
49.940843
49.940843
49.940843
49.940843
49.940843
49.940843
49.940843
49.940843
49.940843
49.940843
49.940843
49.940843
49.940843
49.940843
49.940843
49.940843
49.940843
49.940843
49.940843
49.940843
49.940843
49.940843
49.940843
49.940843
49.940843
49.940843
49.940843
49.940843
49.940843
49.940843
49.940843
49.940843
49.940843
49.940843
49.940843
49.940897
49.940897
49.940897
