28.898151
29.050757
29.102525
29.159420
29.225383
29.247403
29.274031
29.413040
29.469746
29.536402
29.716265
29.752331
29.715504
29.853601
29.953835
30.068820
30.223352
30.183576
30.284385
30.457121
30.697319
30.686462
30.707795
30.804035
30.865520
31.011536
31.052433
31.425741
31.514659
31.624289
31.799095
31.870807
32.028804
32.353373
32.470355
32.711814
32.805243
32.924003
32.987238
32.977155
33.196577
33.542306
33.464105
33.551225
33.811296
33.899515
33.992170
33.965848
34.078171
34.060538
34.211488
34.460941
34.355835
34.726497
34.729853
34.532679
34.623774
34.772731
34.961107
35.020438
35.164499
35.224720
35.400696
35.464049
35.621963
35.730981
35.564464
35.821058
36.141353
36.243296
36.476929
36.442284
36.613324
36.839301
36.961843
37.204781
37.284342
37.443730
37.565211
37.538904
37.556553
37.615544
37.824309
37.936982
37.925036
38.070866
38.048246
38.352864
38.505137
38.456648
38.384984
38.495926
38.599655
38.962615
38.999368
39.226060
39.472485
39.658595
39.683464
39.767898
39.730557
39.738665
39.747137
39.894672
40.156025
40.112278
40.243649
40.241737
40.362347
40.688075
40.805784
40.683368
40.871927
41.198642
41.246236
41.458232
41.671767
41.685058
41.699424
41.570695
41.476678
41.632945
41.700047
41.617109
41.748875
41.880211
42.030903
42.002301
42.105530
42.227036
42.487311
42.563606
42.800881
42.739913
42.650661
42.804856
42.972912
42.987089
43.248909
43.203505
43.244069
43.259742
43.349077
43.365789
43.307132
43.441510
43.483374
43.457166
43.481762
43.392667
43.483472
43.550903
43.792140
44.118357
44.245847
44.205663
44.129556
44.105461
44.038136
43.951409
44.170619
44.425763
44.557767
44.652793
44.755252
44.737366
44.762780
44.865864
44.998985
45.054917
44.901981
44.910096
44.952734
44.863928
44.719472
44.614408
44.482148
44.531074
44.670268
44.707972
44.618578
44.722765
44.653524
44.509647
44.501368
44.510141
44.391236
44.510930
44.594760
44.610683
44.572558
44.510942
44.354297
44.339350
44.438606
44.555520
44.457214
44.536392
44.493222
44.524527
44.652506
44.445331
44.514858
44.440174
44.595215
44.652370
44.670517
44.919277
44.931685
44.782400
45.148728
45.088135
45.003889
44.994579
45.064962
45.144019
45.009350
44.867256
45.025087
45.075990
44.796377
44.767788
44.803457
44.795268
44.748330
44.636633
44.640883
44.580113
44.582379
44.439136
44.518684
44.743411
44.909435
44.836725
44.874949
44.745433
44.717420
44.737896
44.774680
44.660760
44.680650
44.612466
44.621670
44.756002
44.746887
44.677672
44.539865
44.654544
44.579571
44.704537
44.885403
44.782685
44.712052
44.836433
44.898159
44.777348
44.795415
44.960290
45.037429
45.070685
45.173608
45.097793
45.115378
45.032843
44.968457
45.111010
44.841800
44.751279
44.639257
44.666262
44.662577
44.623985
44.596938
44.653138
44.567106
44.770375
44.777286
44.851196
44.776751
44.772726
44.851528
44.868221
45.025431
45.023820
45.047263
45.125153
45.183265
45.122061
45.079169
44.830884
44.823008
44.926968
45.106284
45.143921
45.139285
44.988367
44.984425
45.211425
45.184710
45.417249
45.460222
45.377034
45.180155
44.869809
44.895421
44.833883
44.899725
44.585851
44.743597
44.745464
44.848326
45.067530
44.969960
44.868380
44.828746
44.923858
44.842747
44.963403
44.794131
44.894386
44.694467
44.863959
44.777326
44.766964
44.525249
44.387112
44.502309
44.500197
44.643511
44.460737
44.510557
44.466163
44.499755
44.603290
44.702147
44.828174
44.624873
44.573866
44.402473
44.278558
44.270788
44.346342
44.379791
44.326027
44.224123
44.197620
44.121480
44.331079
44.094652
44.274206
44.241886
44.317635
43.992651
44.187156
44.266965
44.221433
44.183424
44.359531
44.240919
44.264723
44.322528
44.230076
44.403665
44.463346
44.561923
44.555647
44.394576
44.373904
44.218482
44.147504
44.213928
44.234440
44.187888
44.098671
43.971305
44.092170
44.145092
44.233022
44.263686
44.542353
44.581035
44.523045
44.602179
44.707279
44.479964
44.579238
44.611018
44.577366
44.677916
44.645264
44.657076
44.806998
44.875100
44.923655
44.946892
44.854958
44.730403
44.884630
44.994345
44.802206
44.741252
44.608889
44.595949
44.544560
44.766301
44.642307
44.601942
44.672452
44.960486
44.841282
44.776919
44.627194
44.807505
44.852707
44.953875
44.914107
44.827362
44.947134
45.026132
44.927448
44.938371
44.647268
44.689370
44.519098
44.771356
44.688314
44.804191
44.966088
45.083958
45.220875
45.230473
45.147077
45.367391
45.473508
45.567559
45.624255
45.678612
45.659295
45.621673
45.425182
45.510754
45.236684
45.174728
45.100850
45.045713
44.907256
44.820643
44.830720
44.808437
44.963068
44.977455
45.199986
45.111729
45.172503
45.248942
45.208251
45.091183
45.226652
45.428034
45.414592
45.549190
45.508992
45.340129
45.076178
45.325737
45.342068
45.272744
45.303028
45.191548
45.160359
45.127250
45.119945
45.167716
45.139869
45.087168
45.074869
45.092167
44.808716
44.979617
44.925124
44.976916
45.043457
45.063630
45.056885
45.152092
45.266082
45.212151
45.091090
44.936783
44.924168
44.971810
44.688662
44.863602
44.745867
44.734338
44.663079
44.681149
44.780974
44.884368
44.875567
45.003886
44.822559
44.959734
44.966269
44.999725
44.848478
44.765698
44.838617
44.890841
44.609003
44.544980
44.406511
44.311646
44.028115
43.838619
44.171382
44.383726
44.630729
44.794967
44.990433
45.059025
45.127598
45.071713
45.075975
45.207363
45.172918
45.233603
44.948705
44.972649
44.888832
44.814234
44.947986
44.981803
45.034631
45.000970
45.248824
45.132001
45.265567
45.169155
45.270329
45.201403
45.170038
45.293658
45.313070
45.164914
45.112083
45.105684
45.233252
45.225436
45.122569
45.082719
45.298538
45.255168
45.117658
45.115588
45.279240
45.204287
45.293032
45.396921
45.257963
45.507346
45.335406
45.002486
45.006536
44.786388
44.769544
44.947977
44.987396
45.052581
45.072707
45.063516
45.054773
45.090486
45.199718
45.196596
45.341303
45.390502
45.258708
45.218910
45.244575
45.237751
45.307259
45.256607
45.174011
45.136418
45.199843
45.210865
45.101686
45.015796
45.068441
45.168655
45.271918
45.250429
45.130921
45.106817
44.960517
45.000006
45.007498
44.910207
44.785231
44.943407
44.847107
44.841193
45.059088
45.131056
44.992435
45.055538
45.028147
44.975883
45.221256
45.265612
45.342866
45.316943
45.199227
45.277322
45.232662
45.166361
45.088404
45.223454
45.122447
45.168678
45.074061
45.031757
45.053870
45.034907
44.993014
44.912526
44.858823
44.859445
44.977139
45.117175
45.341015
45.388644
45.402625
45.377306
45.492580
45.399816
45.307017
45.242480
45.454388
45.345609
45.419855
45.324847
45.450911
45.655952
45.586810
45.582778
45.386846
45.309894
45.165193
45.061584
45.025902
44.957297
44.998778
45.077791
45.093829
44.960290
45.093977
45.210179
45.005874
44.963985
44.961976
44.923550
45.141186
45.154437
44.952688
45.002807
44.994761
45.202819
45.159865
45.131562
45.058573
44.999393
44.845610
44.940418
45.068955
45.080404
45.193841
45.008899
45.039919
44.868546
45.134930
45.077205
45.050453
45.091664
45.145983
44.898823
44.767346
44.848999
44.908624
45.108088
44.931245
44.786305
44.800661
44.879543
44.676093
44.546088
44.475181
44.469317
44.331808
44.198634
44.160382
44.219139
44.246892
44.080990
44.212472
44.365883
44.468837
44.647160
44.775162
44.638210
44.798637
44.777204
44.743158
44.790007
44.767777
45.025235
45.044023
45.141796
45.213195
45.185355
45.381101
45.515598
45.700445
45.731186
45.729679
45.596691
45.687532
45.597349
45.441384
45.382606
45.266447
45.279737
45.311966
45.414894
45.522336
45.452255
45.309754
45.209847
45.259652
45.348598
45.458298
45.304447
45.359261
45.245460
45.249165
45.384257
45.449341
45.450612
45.350296
45.374296
45.456245
45.417810
45.505613
45.495063
45.374523
45.336862
45.190880
45.350419
45.360677
45.418243
45.245863
45.253435
45.273702
45.229324
45.061506
44.818885
44.883330
44.901542
44.784888
44.727608
44.727379
44.768384
44.858386
44.778410
44.839714
44.913287
44.910564
44.998410
45.061795
45.203274
45.272501
45.081290
45.048385
45.012690
44.896214
44.839092
44.710471
44.639472
44.770142
44.698411
44.508914
44.470823
44.573274
44.824529
44.922035
44.758757
44.645791
44.648575
44.641252
44.563883
44.535935
44.525344
44.477059
44.234949
44.269618
44.423379
44.621010
44.752796
44.943935
44.857579
44.805885
44.749225
44.718872
44.418968
44.379059
44.581713
44.540358
44.673490
44.448364
44.419697
44.370551
44.471949
44.439868
44.566198
44.609447
44.737706
44.708985
44.675002
44.792287
44.908500
45.033353
45.218167
45.353522
45.301945
45.434077
45.454579
45.393770
45.388293
45.332171
45.700433
45.542551
45.501900
45.514448
45.610855
45.591556
45.482287
45.436098
45.706296
45.652998
45.697608
45.442785
45.472194
45.366979
45.264242
45.276332
45.154594
44.979509
44.863570
45.086095
45.184033
45.393796
45.397434
45.227631
45.412129
45.373197
45.342638
45.365935
45.277457
45.198859
45.248756
45.295693
45.124851
44.995459
44.823928
44.920691
44.715657
44.698306
44.610276
44.669636
44.636726
44.566338
44.551941
44.478486
44.767146
44.964956
45.054084
45.176340
45.177293
45.041066
45.003210
44.873398
44.796598
44.701348
44.595433
44.738174
44.769105
44.473791
44.426645
44.533398
44.531376
44.731633
44.651910
44.617973
44.595028
44.563227
44.639442
44.587950
44.553152
44.373443
44.494231
44.558396
44.766315
44.742672
44.673439
44.744776
44.828812
44.835997
44.657712
44.717338
44.490411
44.595639
44.665727
44.652779
44.648901
44.598342
44.373886
44.425687
44.437534
44.275387
44.368305
44.391400
44.392566
44.349475
44.273438
44.236583
44.133052
44.182792
44.337941
44.218979
44.277853
44.322461
44.479182
44.657518
44.654301
44.519614
44.507330
44.446073
44.442259
44.196820
44.200406
44.254259
44.400425
44.431785
44.381455
44.254669
44.039088
44.123098
44.336590
44.481577
44.697812
44.703213
44.598387
44.565935
44.669056
44.862818
44.779681
44.804209
44.600064
44.516778
44.401134
44.092901
44.035465
44.262147
44.505730
44.309629
44.511775
44.906396
44.852043
45.061547
45.171885
45.228818
45.312060
45.430301
45.436979
45.389911
45.350555
45.334964
45.313293
45.374836
45.395841
45.422891
45.387904
45.375965
45.353305
45.447928
45.340193
45.508931
45.573293
45.485396
45.576222
45.448422
45.476790
45.491855
45.531496
45.676471
45.688741
45.726718
45.829512
45.656384
45.622565
45.698971
45.691016
45.655722
45.652487
45.698374
45.585865
45.650763
45.606826
45.502772
45.438953
45.317419
45.324665
45.144075
45.133946
45.079340
45.080280
44.977309
45.019892
45.102410
45.275523
45.160382
45.316593
45.341461
45.392746
45.404819
45.295568
45.253968
45.131105
45.125536
45.115240
45.070265
44.944981
44.809668
44.932577
44.827342
44.750252
44.908344
44.950247
44.965247
44.947040
45.130882
45.229636
45.217730
45.081388
45.043284
45.124288
45.308881
45.314580
45.179578
45.250632
45.231857
45.105101
45.166134
45.126790
45.029845
44.975742
45.192485
45.151002
45.182864
45.017231
44.894936
44.791962
44.909435
44.991814
45.012554
45.261681
45.196691
45.194131
45.187606
45.409235
45.315487
45.195222
45.360881
45.500166
45.536378
45.572449
45.785917
45.634846
45.624790
45.479515
45.422884
45.316138
45.291051
45.292039
45.221224
45.133719
45.122664
44.913489
44.989386
45.012544
44.963322
45.121703
45.024810
45.123175
45.258880
45.426847
45.435948
45.521044
45.435976
45.234695
45.135926
44.953906
44.982802
45.016038
44.783878
44.703463
44.801142
44.819461
44.804113
44.887073
45.020077
44.737555
44.813279
44.723659
44.856784
44.708866
44.759675
44.986534
45.014634
44.876166
44.933735
44.840492
44.657503
44.456366
44.724141
44.527626
44.693072
44.782988
44.696089
44.764828
44.732939
44.695069
44.747915
44.770042
44.992101
45.141037
45.180349
45.145163
44.915511
45.015818
44.756577
44.693927
44.773291
44.842981
44.951256
44.792634
45.002843
44.991795
45.034218
45.079107
45.076367
45.125857
44.962457
44.769441
44.798861
44.541402
44.683148
44.467063
44.515816
44.612453
44.381529
44.372867
44.418870
44.503530
44.393225
44.599343
44.412002
44.254559
44.502388
44.753205
44.608850
44.768353
44.717942
44.610633
44.800869
44.542318
44.809287
44.988273
44.986639
44.936276
45.074797
44.978428
44.985410
45.017251
44.978922
44.988936
44.935675
44.982902
44.887513
44.875346
44.818311
44.823641
44.889250
44.963139
45.002957
45.123331
45.305493
45.370214
45.270847
45.244957
45.437518
45.431933
45.293696
45.206933
45.114593
44.986335
45.003406
44.781863
44.771032
44.706546
44.539014
44.327878
44.468157
44.387345
44.301849
44.357156
44.452328
44.471616
44.431834
44.372623
44.251480
43.901328
43.675003
43.653518
43.830135
44.061511
44.001970
43.964927
44.179398
43.812336
43.689837
43.970290
44.074389
44.227984
44.139153
44.347440
44.486406
44.548547
44.637356
44.944125
45.090872
45.032318
45.058966
45.049138
45.192229
45.101621
45.025147
45.187336
45.070487
44.935370
44.819654
44.847617
44.849227
44.771501
44.874476
45.027085
44.945547
44.933151
44.734462
45.001769
45.091713
45.068699
45.053525
44.845749
44.747879
44.880279
44.936932
45.157259
45.504176
45.602124
45.536585
45.674280
45.822845
45.826212
45.697846
45.543513
45.625442
45.443501
45.414672
45.407257
45.357564
45.165778
45.101992
44.971585
44.805711
44.642144
44.565115
44.463933
44.564738
44.363333
44.511625
44.701663
44.868381
44.893970
44.577051
44.779663
44.735316
44.720226
44.534996
44.555081
44.592065
44.615866
44.657983
44.566640
44.780880
44.901949
44.736063
44.819420
44.989064
44.942556
44.783223
45.021691
44.887944
45.046019
45.175947
44.962644
44.911218
44.890921
45.154203
45.324245
45.518714
45.433226
45.433506
45.398296
45.463744
45.502935
45.355794
45.462322
45.507007
45.372041
45.332752
45.293117
45.191179
45.362104
45.247732
45.244097
45.310887
45.220598
45.453249
45.211892
45.172277
45.153954
45.177837
45.177098
45.097107
44.990474
44.995697
45.232355
45.261458
45.345787
45.390959
45.283452
45.240445
45.143769
45.282504
45.236831
45.191349
45.241552
45.205739
45.201543
45.310450
45.403465
45.402093
45.484395
45.417842
45.633663
45.653815
45.646465
45.509352
45.354820
45.259210
45.222162
45.385950
45.358480
45.188898
45.150653
45.192979
45.092294
44.951289
44.997027
45.004944
45.101539
45.035530
45.023975
44.944982
44.766793
44.749976
44.936881
44.834803
44.894199
44.840560
44.924249
45.045986
44.946137
45.027534
45.279620
45.138321
45.044574
45.179772
45.171800
45.219425
45.109897
45.019166
44.919486
44.963211
44.879458
44.717797
44.640049
44.691234
44.739979
44.569631
44.357206
44.395574
44.363291
44.414734
44.552964
44.636797
44.592006
44.551880
44.769422
44.786027
44.637152
44.695043
44.870767
45.115533
45.105253
45.020499
44.934476
44.614445
44.720225
44.818068
44.769755
44.752601
44.710871
44.628839
44.787248
44.612148
44.528198
44.439366
44.692922
44.708116
44.820181
44.545572
44.663930
44.766442
44.466823
44.497944
44.661859
44.429455
44.451982
44.288385
44.281746
44.060343
44.159070
43.989764
44.045133
43.805545
43.767785
44.001396
43.941747
43.841635
43.749171
43.752999
44.263281
44.266567
44.382108
44.486539
44.544588
44.652472
44.830259
44.794558
44.770803
44.633825
44.894516
44.613917
44.683204
44.841295
44.747492
44.718165
44.580540
44.781643
44.668907
44.711239
44.678220
44.699847
44.647511
44.912930
44.682203
44.814337
44.854587
44.869236
44.890473
44.793722
44.857628
44.762771
44.695880
44.451161
44.661449
44.737908
44.919686
44.785665
44.804237
44.796229
44.974815
44.930752
44.843388
44.701509
44.658802
44.795214
44.694130
44.740821
44.814335
44.784633
44.803519
44.672977
44.819293
44.778972
44.850590
44.935839
44.803498
44.958950
44.960895
45.034417
45.031062
44.888088
44.815710
44.791510
44.916039
44.983728
44.898437
44.763545
44.739430
44.814419
44.751891
44.844485
44.787100
45.021082
44.858722
44.709070
44.634910
44.540812
44.456199
44.610541
44.646537
44.574912
44.684379
44.824619
44.698998
44.552299
44.470477
44.345485
44.206613
44.176193
44.436393
44.707408
44.923173
44.761987
44.725167
44.720986
44.684487
44.758470
44.731440
44.818048
44.899435
44.707838
44.823355
44.942094
44.853384
44.965980
44.755965
44.840803
44.771842
44.580669
44.680124
44.830533
44.940519
45.049363
44.983734
45.103532
45.081241
45.108565
44.901700
44.996585
44.908006
44.938834
45.002550
44.898658
44.943041
44.965519
45.021928
44.910657
44.920127
44.799200
44.807907
44.997161
45.132954
45.120119
44.978957
44.959378
45.069023
45.155953
45.192160
45.034093
45.049917
44.947915
44.999239
44.881413
44.919026
44.814218
44.684080
44.609099
44.560237
44.644675
44.747692
44.868599
44.749561
45.067168
45.192450
45.443579
45.370717
45.337425
45.193594
45.304307
45.169698
44.987174
45.111957
45.118493
45.181798
45.350598
45.456670
45.561426
45.389859
45.497983
45.583043
45.484991
45.339547
45.195164
45.232223
44.973136
44.872151
44.993820
45.038302
45.078674
45.290898
45.275946
45.202577
45.259738
45.475159
45.592522
45.816593
45.886805
45.999549
46.159873
46.082992
46.147640
45.993786
45.898990
46.041795
45.920654
45.947840
45.870191
45.924003
45.815343
45.867130
46.004393
45.986299
45.898574
46.015805
45.997809
45.966953
45.888990
45.735282
45.479428
45.481151
45.356452
45.517336
45.432216
45.338192
45.354675
45.322379
45.341950
45.389369
45.396968
45.551707
45.614180
45.566959
45.600388
45.494565
45.590100
45.561330
45.361604
45.325192
45.319764
45.357376
45.288574
45.346082
45.318618
45.184521
44.911388
45.045677
45.106725
44.824004
44.771324
44.833001
44.636571
44.647503
44.823523
45.122902
45.223372
45.060158
45.164493
45.224337
45.129591
45.143923
44.857190
44.664445
44.751923
44.885369
44.903842
44.857160
45.074933
45.006730
44.867157
44.934478
45.339809
45.359392
45.260333
45.480910
45.375952
45.441885
45.598570
45.592566
45.546608
45.605330
45.452339
45.680895
45.776815
45.666208
45.773933
45.800015
45.925351
45.861949
45.953115
45.839547
46.103153
45.963801
45.806056
45.757470
45.749045
45.642464
45.627304
45.628054
45.761106
45.834403
45.929348
45.887204
45.869921
45.630718
45.624416
45.720107
45.816532
45.731220
45.651640
45.732782
45.671283
45.742181
45.563552
45.688269
45.762442
45.843607
45.815331
45.773329
46.018860
46.059535
45.991761
45.911757
45.735530
45.720360
45.657334
45.651566
45.646991
45.718963
45.585250
45.845426
45.651276
45.641844
45.775077
45.725326
45.619246
45.612185
45.481865
45.318615
45.275858
45.184211
45.330839
45.489790
45.802710
45.839825
45.818844
45.701805
45.782764
45.778391
45.852374
45.806792
45.670330
45.671208
45.607447
45.632195
45.565197
45.735209
45.555339
45.502438
45.517044
45.439978
45.456055
45.501727
45.632457
45.667032
45.419791
45.688165
45.759874
45.723780
45.711621
45.771985
45.654996
45.776870
45.691328
45.542637
45.671779
45.691954
45.763886
45.800619
45.853590
45.543400
45.580096
45.534290
45.720981
45.885273
45.775376
45.866690
45.996137
46.039177
45.933261
45.999985
45.919602
46.026938
46.016122
45.814085
46.028088
45.927218
45.854144
45.911894
45.847769
45.757050
45.830361
45.811554
45.841369
45.855507
45.920704
45.775675
45.820355
45.770007
45.888135
45.893819
45.743282
45.703136
45.662051
45.753119
45.777024
45.909750
45.966649
45.994380
45.878974
45.869019
45.745257
45.741215
45.576448
45.475957
45.344206
45.526448
45.528902
45.570152
45.612663
45.886125
45.856929
45.920100
45.953176
45.959773
45.940023
45.953517
46.007869
45.881651
45.958717
45.814029
45.762378
45.835949
45.722581
45.527997
45.504103
45.521728
45.503842
45.471387
45.473561
45.471948
45.513012
45.725294
45.765373
45.867885
45.893710
46.046577
46.010050
45.893430
45.670603
45.674877
45.818053
45.800601
45.511446
45.545437
45.571035
45.755654
45.851773
45.877806
45.818318
45.666322
45.633432
45.522734
45.323585
45.376464
45.416097
45.338909
45.279622
45.377014
45.505848
45.383767
45.482764
45.607647
45.787078
45.891512
45.691055
45.797475
45.831633
45.644283
45.601987
45.785786
45.656871
45.657209
45.891141
46.040051
45.995671
46.132433
45.909659
45.997635
46.088349
46.099223
45.951848
46.131951
46.030260
46.056257
46.272982
46.410771
46.310286
46.439080
46.464575
46.434092
46.445268
46.402245
46.235620
46.101927
46.237043
46.205534
46.053283
46.127684
46.210971
46.212768
46.283283
46.308963
46.255639
46.171556
46.222413
46.162353
46.211547
46.361942
46.348219
46.454511
46.343363
46.432446
46.462905
46.489086
46.545817
46.407662
46.330634
46.167237
46.211059
46.290208
46.283051
46.243984
46.141463
46.152456
46.242157
46.269930
46.113620
46.176498
46.158710
46.129974
46.037656
46.089548
45.949938
45.788072
45.649459
45.712299
45.539122
45.544418
45.590044
45.518044
45.461223
45.333382
45.330490
45.299566
45.157908
45.384916
45.308235
45.307528
45.447836
45.440884
45.483628
45.521039
45.796760
45.890732
45.859317
45.912356
46.009862
46.018594
46.020876
46.000252
45.917862
46.003850
46.071210
46.065971
46.041084
46.123971
46.207679
46.118158
45.975221
45.791017
45.827218
46.058836
46.108910
46.251184
46.221049
46.097359
46.211245
46.259198
46.198310
46.141239
46.102968
46.062182
46.188754
46.226054
46.151524
46.261854
46.348417
46.263444
46.201252
46.211188
46.218353
46.212922
46.194096
46.104189
46.253621
46.017242
46.203525
46.122670
46.080792
46.092198
46.026563
45.905720
45.794826
45.695135
45.920516
45.890122
45.852462
45.932877
46.034770
45.956780
46.020321
46.071300
45.958874
45.869631
45.829456
45.721703
45.770956
45.728193
45.763421
45.684293
45.726105
45.787797
45.744374
45.814875
45.869686
45.908047
46.016838
46.081639
46.142105
46.084648
46.078918
46.105695
46.035241
46.141184
46.069737
46.097992
46.273506
46.217691
46.134091
46.152402
46.209129
46.198065
46.188541
45.960537
45.903242
46.021687
46.104978
46.156087
46.262516
46.330686
46.328169
46.368678
46.367150
46.360261
46.114290
46.277162
46.367759
46.295066
46.330073
46.371503
46.277867
46.369292
46.268051
46.220967
46.183780
46.035717
46.139745
46.045064
46.171733
46.053102
46.163610
46.020362
46.012710
45.899395
45.938758
45.983558
45.910006
46.099129
46.140580
46.127957
46.119761
46.147753
46.116614
46.115981
46.148432
46.208177
46.239529
46.250315
46.362547
46.418100
46.309845
46.172510
46.079177
46.139013
45.947085
46.071370
45.969615
46.112721
46.081653
46.081805
46.019981
46.023199
46.034640
46.090926
46.067066
46.259578
46.354791
46.377298
46.447094
46.211525
46.252213
46.443791
46.450308
46.420619
46.548667
46.405524
46.366720
46.470997
46.451154
46.415346
46.470180
46.348258
46.310779
46.187316
46.278860
46.224690
46.253977
46.382123
46.311124
46.321513
46.199181
46.227721
46.363992
46.443646
46.585209
46.573836
46.437805
46.429329
46.412509
46.277788
46.274767
46.255363
46.297954
46.487522
46.589891
46.562278
46.534591
46.533641
46.375444
46.383646
46.275220
46.278651
46.341474
46.222625
46.249128
46.266739
46.259638
46.322448
46.294940
46.112019
46.115309
46.310164
46.352478
46.352817
46.332141
46.320523
46.265845
46.241643
46.134095
46.153123
46.158465
46.193885
46.336369
46.288493
46.184794
46.040862
46.127060
46.266546
46.195320
46.095428
46.028183
45.902238
45.759038
45.855876
45.689227
45.750396
45.785944
45.705382
45.748028
45.974098
45.953544
46.173129
46.127894
46.205400
46.122169
46.305010
46.164985
46.314295
46.266594
46.216994
46.225681
46.039809
45.971865
46.168120
46.115684
46.095982
46.183946
45.877959
45.786020
45.934759
46.089216
46.236631
46.291133
46.248123
46.351182
46.317605
46.462965
46.432704
46.422380
46.441605
46.357701
46.225674
46.210270
46.119216
46.268036
46.367084
46.358183
46.237763
46.127726
46.114330
46.241334
46.395527
46.507166
46.554114
46.545394
46.532202
46.619769
46.612855
46.612284
46.629090
46.550074
46.520444
46.544377
46.493701
46.493872
46.433559
46.571468
46.550946
46.479455
46.552200
46.627228
46.621821
46.621265
46.467687
46.434144
46.478868
46.461031
46.445053
46.336728
46.315840
46.387935
46.382770
46.302745
46.373884
46.304368
46.310979
46.313464
46.381939
46.334297
46.325712
46.354607
46.467276
46.415110
46.322073
46.352946
46.376909
46.237599
46.415594
46.449468
46.560292
46.532005
46.400934
46.340708
46.319778
46.448820
46.398590
46.494931
46.416150
46.440727
46.464016
46.561189
46.520702
46.418870
46.376437
46.300255
46.378866
46.323234
46.339146
46.399609
46.492940
46.492229
46.388862
46.303346
46.428357
46.556786
46.684967
46.755950
46.815798
46.757346
46.674857
46.682634
46.636165
46.581292
46.540738
46.645896
46.788019
46.757089
46.813908
46.844031
46.835741
46.796495
46.777767
46.714149
46.838470
46.831352
46.843967
46.867093
46.958468
46.818851
46.803225
46.857884
46.870309
46.745965
46.785660
46.760316
46.727467
46.801628
46.782261
46.713365
46.723968
46.626532
46.687608
46.852536
46.947851
46.845727
46.829307
46.646366
46.600932
46.571858
46.656029
46.555619
46.467778
46.584483
46.651591
46.580881
46.514422
46.556376
46.632541
46.614253
46.579465
46.701295
46.801937
46.786449
46.754440
46.616371
46.754828
46.693524
46.633231
46.588229
46.620493
46.481224
46.604115
46.500365
46.431608
46.466528
46.430418
46.501437
46.411542
46.394644
46.506542
46.407425
46.464666
46.396336
46.463421
46.416201
46.570779
46.554402
46.491092
46.530654
46.598294
46.482439
46.384754
46.347395
46.513892
46.614166
46.663966
46.671501
46.569529
46.416416
46.517895
46.582790
46.561937
46.678685
46.752582
46.763092
46.660696
46.512719
46.606639
46.695758
46.626212
46.672144
46.813095
46.925596
46.843682
46.733279
46.589791
46.725377
46.811501
46.867202
46.742346
46.813012
46.897423
46.832189
46.646742
46.765238
46.655830
46.611138
46.524510
46.382414
46.321254
46.237548
46.353190
46.353326
46.222755
46.398969
46.138833
46.156036
46.339846
46.413273
46.482278
46.545582
46.535948
46.724345
46.669943
46.644257
46.649404
46.533018
46.595093
46.670210
46.678057
46.701989
46.627625
46.628893
46.584466
46.676361
46.709632
46.690155
46.724952
46.772183
46.811774
46.717127
46.697242
46.747019
46.742956
46.679394
46.676158
46.746506
46.705951
46.613665
46.628088
46.666283
46.486283
46.538710
46.411623
46.586619
46.577055
46.668345
46.625866
46.639412
46.684672
46.642859
46.670632
46.685070
46.641932
46.542628
46.594859
46.599569
46.560340
46.592386
46.534608
46.471014
46.477441
46.431772
46.508899
46.484429
46.478714
46.413507
46.469469
46.485068
46.339374
46.265148
46.304328
46.246049
46.294812
46.419247
46.421288
46.562160
46.399208
46.462832
46.454022
46.515989
46.566060
46.528030
46.522897
46.572064
46.504293
46.569179
46.553909
46.562920
46.587903
46.454578
46.394309
46.504209
46.557254
46.404135
46.455091
46.498275
46.573261
46.545980
46.613734
46.595490
46.521487
46.474897
46.471467
46.508196
46.258372
46.177347
46.339246
46.313551
46.340748
46.294098
46.182244
46.135458
46.182862
46.359860
46.238839
46.321837
46.315533
46.448786
46.585033
46.426954
46.353837
46.403667
46.363102
46.337703
46.544640
46.583975
46.520102
46.621948
46.637518
46.615981
46.604420
46.716447
46.731164
46.649348
46.672277
46.720213
46.554539
46.625176
46.570794
46.629565
46.484693
46.563604
46.711903
46.675555
46.626038
46.543100
46.475372
46.481938
46.473575
46.533401
46.516828
46.515853
46.551303
46.600567
46.623598
46.634994
46.654178
46.691039
46.671206
46.527787
46.440787
46.555660
46.585831
46.671221
46.490273
46.519523
46.498574
46.443152
46.408900
46.497182
46.485054
46.666662
46.957679
46.964826
47.054349
47.056440
47.038230
47.033987
46.940206
46.934460
46.873703
46.766115
46.862060
46.809989
46.937790
46.973174
47.001188
46.939740
46.856710
46.941404
46.921020
46.822700
46.852355
46.962392
46.889805
46.856031
47.013093
47.093257
46.991115
46.910816
46.837057
46.876281
46.896791
46.802368
46.735661
46.897790
46.807234
46.732588
46.754033
46.679184
46.786955
46.856688
46.732629
46.643917
46.684020
46.833338
46.854969
46.821016
46.844362
46.995420
46.995376
47.120175
47.069987
47.038932
46.889716
46.750508
46.889783
46.752115
46.656220
46.616398
46.467504
46.545882
46.635710
46.572866
46.686756
46.836886
46.796672
46.767210
46.842944
46.660558
46.683962
46.737319
46.754769
46.867179
46.955677
46.945851
46.911685
46.915789
46.962076
46.969983
46.920756
46.861231
46.687943
46.655687
46.657983
46.697030
46.509866
46.450880
46.563624
46.709533
46.678388
46.678048
46.669852
46.703962
46.732936
46.694432
46.640474
46.580685
46.699049
46.809427
46.679996
46.860230
46.779312
46.705392
46.585932
46.668768
46.803645
46.889392
46.872490
46.749754
46.754135
46.741547
46.624699
46.525645
46.574332
46.629887
46.603362
46.699381
46.630594
46.643917
46.671786
46.890458
46.788574
46.763760
46.802039
46.885024
46.811370
46.629588
46.757670
46.786790
46.910911
46.897265
46.849712
46.908976
46.961231
46.935174
46.923676
46.933320
46.998357
46.909533
46.913144
46.917879
46.874824
46.827852
46.924553
47.046581
47.050917
46.974423
46.990223
46.883232
46.814899
46.835121
46.977240
46.742428
46.743075
46.763560
46.703033
46.819613
46.737752
46.805064
46.850755
46.874732
46.858018
46.810328
46.737291
46.771864
46.862761
46.749815
46.676416
46.685092
46.707762
46.864760
46.985018
47.039435
47.073902
47.000789
46.974535
46.977468
46.965523
46.958780
47.003750
46.878972
46.957195
47.032713
46.964558
46.930470
46.954928
46.927020
46.898485
46.880690
46.912643
46.932353
46.824275
46.873671
46.941579
46.842095
47.002331
47.204612
47.232592
47.117514
47.153059
47.310419
47.284121
47.271524
47.164371
47.084078
47.102130
47.102356
47.076192
46.982912
46.855369
46.924014
46.926857
46.919001
46.825241
46.755056
46.801879
46.745169
46.810927
46.701097
46.722946
46.646881
46.781772
46.903857
47.008506
47.120593
47.025385
46.937819
46.895744
46.826849
47.036041
46.956898
46.980893
46.969874
46.969283
46.950199
46.992699
47.028279
47.097037
47.140575
47.089957
46.948318
46.919218
46.843539
46.882054
46.861991
46.809404
46.875893
46.789285
46.838714
46.826372
46.865955
46.826472
47.056742
47.144449
47.051526
47.141111
47.180715
47.226642
47.198731
47.188238
47.159735
47.235536
47.234040
47.256082
47.401701
47.342122
47.178547
47.180868
47.188073
47.283514
47.320301
47.252945
47.245937
47.178676
47.081331
47.095283
47.086078
47.130982
47.157294
47.099786
47.076794
47.113894
46.995684
46.898804
46.937207
46.792263
46.813654
46.803588
46.769514
46.740517
46.740132
46.758766
46.789174
46.947716
47.019486
47.000279
46.964066
46.808307
46.733433
46.712015
46.899407
46.931837
46.935743
46.988067
46.964325
46.860255
46.878034
47.046891
46.870968
46.959411
47.087983
47.165325
47.181289
47.157590
47.078933
47.153908
47.074191
47.116591
47.212929
47.194066
47.181844
47.158873
47.199901
47.219787
47.173635
47.116525
47.006109
47.007003
46.984712
47.098737
46.977647
46.954495
46.764441
46.720153
46.794204
46.966286
46.987772
47.004523
46.863917
46.851660
46.901215
46.933393
46.979412
46.972095
46.921225
46.931856
46.980415
46.972237
46.906834
46.853246
46.877463
46.809327
46.984327
46.966350
46.959387
47.003794
46.965158
46.992442
46.949633
46.998662
47.001212
46.994245
47.057653
47.172293
47.125431
47.039205
47.048193
47.028385
47.120249
47.055722
46.992737
47.062849
47.221423
47.064228
47.049788
46.998875
46.948622
46.923957
46.946336
47.039103
47.030856
46.971268
46.958477
46.944156
46.920383
46.959757
47.096697
46.998701
46.924001
46.923507
47.025125
47.130448
47.214551
47.201217
47.147389
47.138769
47.132830
47.243717
47.263311
47.260939
47.419214
47.355340
47.276680
47.202808
47.073788
46.951051
46.963487
47.057021
47.034073
46.867925
46.816952
46.728589
46.877687
46.884798
46.950512
46.976633
46.941547
46.885472
47.020645
47.195747
47.096420
47.025477
47.024857
47.054746
47.089182
47.123124
47.008382
46.816913
46.850158
46.923986
46.918814
47.019543
47.055036
46.937137
46.847563
46.868284
46.965162
46.962577
46.955067
46.891692
46.968820
46.878753
46.768547
46.886116
46.886991
46.956535
47.034205
46.983418
46.928936
47.030146
46.940446
47.076738
47.348725
47.398874
47.324918
47.352953
47.269161
47.254994
47.195073
47.135955
47.194012
47.051425
47.139257
47.109403
47.159373
47.210154
47.213154
47.268526
47.252367
47.229106
47.081575
47.055615
46.925630
46.948242
46.913170
47.035864
46.973522
46.976866
47.044801
47.161017
47.193916
47.122664
47.208924
47.073490
47.115955
47.158493
47.283142
47.257422
47.374023
47.380148
47.439531
47.375286
47.404141
47.451084
47.393484
47.256792
47.241356
47.233165
47.105072
47.087601
47.058572
47.065731
46.989942
47.064859
47.146791
47.234622
47.370277
47.410215
47.366785
47.357045
47.311745
47.172889
47.169903
47.081851
47.141826
47.112859
47.082296
47.012010
47.028711
46.799541
46.832511
46.921011
46.910704
46.930811
46.943630
46.979278
47.054586
47.109551
47.185725
47.417427
47.374812
47.367683
47.354172
47.208111
47.230877
47.234280
47.256729
47.312846
47.310647
47.232067
47.117538
47.068736
47.178787
47.203925
47.143674
47.197666
47.180654
47.124789
47.156092
47.180554
47.123980
47.097072
47.059316
47.123714
47.067480
47.104675
47.079573
47.123823
47.126039
47.090635
47.140784
47.130606
47.102077
47.041818
47.055852
46.984950
46.949901
46.923549
47.001930
47.011748
47.007963
47.039388
47.202675
47.208230
47.307979
47.288802
47.277528
47.164465
47.087064
47.071830
47.263303
47.086391
47.144694
47.196558
47.222204
47.258069
47.282887
47.246448
47.214140
47.182014
47.257655
47.308079
47.397369
47.417877
47.493839
47.527873
47.330155
47.329259
47.220445
47.239345
47.312063
47.268550
47.340960
47.393960
47.435244
47.446505
47.398279
47.302214
47.366462
47.317718
47.258210
47.228023
47.214499
47.243046
47.113525
47.219008
47.397667
47.414162
47.332874
47.325120
47.317530
47.345536
47.287522
47.352670
47.260230
47.225618
47.075816
46.980244
47.062438
47.147943
47.077419
47.130594
47.077420
47.118004
47.163874
47.159833
47.073680
47.106620
47.216256
47.329720
47.482382
47.378577
47.426137
47.487001
47.412150
47.278145
47.241700
47.211216
47.091799
47.027979
47.017732
47.064674
47.197076
47.301117
47.248826
47.391286
47.518150
47.474335
47.426202
47.381857
47.436941
47.434141
47.470884
47.480720
47.551530
47.421899
47.288832
47.315960
47.304907
47.270669
47.213291
47.093184
47.053016
46.975025
47.091939
47.001663
46.945237
47.063991
47.001253
46.990208
47.096985
47.189103
47.313763
47.263401
47.312001
47.348452
47.457224
47.676151
47.761483
47.745716
47.686409
47.628018
47.515389
47.453560
47.466662
47.501172
47.532897
47.534648
47.428258
47.353241
47.392183
47.353654
47.419224
47.506006
47.513648
47.430219
47.441040
47.402428
47.478414
47.412769
47.267172
47.194800
47.237662
47.245225
47.187425
47.136132
47.235302
47.293035
47.331688
47.286786
47.261914
47.152661
47.226972
47.291297
47.342541
47.372965
47.417908
47.364134
47.459675
47.562895
47.549771
47.503219
47.389186
47.314145
47.317694
47.279336
47.237471
47.270433
47.292697
47.310852
47.233144
47.220023
47.247733
47.309962
47.313492
47.384870
47.320444
47.136723
47.121907
47.093328
47.127773
47.132212
47.195510
47.131054
47.235816
47.342647
47.469434
47.524503
47.513140
47.484329
47.477303
47.408053
47.393500
47.381585
47.346600
47.594904
47.737989
47.812986
47.824961
47.758232
47.688450
47.706176
47.608230
47.513779
47.615087
47.617851
47.559428
47.557148
47.487402
47.435389
47.409696
47.357780
47.248057
47.307764
47.283876
47.378960
47.411162
47.461343
47.521407
47.444134
47.419514
47.371505
47.346497
47.458885
47.513454
47.480567
47.459592
47.551055
47.499550
47.540477
47.520454
47.455078
47.473853
47.361750
47.375745
47.364980
47.312018
47.308173
47.407867
47.529089
47.543069
47.547933
47.459726
47.468992
47.418971
47.367956
47.311376
47.444927
47.358191
47.358105
47.437008
47.324083
47.303684
47.403539
47.298735
47.333252
47.425208
47.460934
47.413980
47.496192
47.513724
47.594968
47.571473
47.574341
47.425708
47.287895
47.248410
47.424653
47.438980
47.373456
47.302063
47.295269
47.425425
47.437220
47.324626
47.380868
47.455418
47.476724
47.591184
47.529728
47.440145
47.453072
47.511542
47.522362
47.492179
47.329071
47.257454
47.386382
47.377556
47.372234
47.322047
47.494095
47.483808
47.500390
47.591802
47.516655
47.470883
47.413633
47.461176
47.544508
47.556142
47.548144
47.585723
47.446706
47.380946
47.469737
47.443341
47.477469
47.526733
47.567583
47.570439
47.615715
47.574982
47.569479
47.505205
47.531255
47.589008
47.599733
47.619149
47.682689
47.777613
47.669226
47.614533
47.576545
47.569207
47.642068
47.533589
47.384689
47.438905
47.479132
47.560352
47.568177
47.572371
47.567599
47.685144
47.712863
47.631875
47.626636
47.656820
47.669796
47.751234
47.750819
47.793818
47.685965
47.719115
47.620520
47.559738
47.452123
47.535795
47.523384
47.584736
47.699234
47.627577
47.712991
47.693537
47.560218
47.459570
47.356063
47.230797
47.069833
47.103953
47.102016
47.255384
47.437823
47.361541
47.554639
47.599635
47.626784
47.663555
47.616545
47.588632
47.593837
47.525318
47.528394
47.489846
47.445318
47.481426
47.480625
47.538408
47.492555
47.448774
47.606986
47.567037
47.496352
47.419943
47.434116
47.412479
47.301633
47.281544
47.471456
47.453348
47.495982
47.443499
47.489701
47.473815
47.580620
47.536193
47.512837
47.653483
47.652786
47.735534
47.702639
47.602570
47.522755
47.567243
47.524321
47.548070
47.619290
47.696982
47.725539
47.734704
47.661744
47.541541
47.511101
47.465120
47.493711
47.602176
47.597553
47.594645
47.552392
47.477147
47.427491
47.286212
47.209060
47.072458
46.958814
46.883984
47.107630
47.174510
47.208935
47.330277
47.319106
47.401937
47.355198
47.367844
47.353367
47.325643
47.357452
47.430533
47.415954
47.486297
47.393185
47.349894
47.334039
47.340401
47.361603
47.356879
47.345607
47.430833
47.501146
47.474235
47.446330
47.383835
47.431487
47.534337
47.578854
47.526814
47.421277
47.418503
47.505163
47.438018
47.383128
47.478995
47.427432
47.486466
47.459718
47.372135
47.328645
47.320686
47.253527
47.183545
47.261768
47.192226
47.234962
47.274516
47.296732
47.337911
47.287436
47.206382
47.259443
47.379273
47.392513
47.344951
47.377881
47.496786
47.589761
47.574424
47.655388
47.628784
47.631100
47.649587
47.646910
47.520497
47.600290
47.476499
47.487809
47.441973
47.413139
47.404284
47.439824
47.473986
47.499609
47.580350
47.526948
47.496792
47.481402
47.500624
47.518192
47.499279
47.593719
47.587892
47.576296
47.612155
47.561871
47.540751
47.496660
47.536706
47.598520
47.760544
47.761513
47.852758
47.891430
47.908769
47.863102
47.778088
47.666094
47.607102
47.460450
47.308575
47.431787
47.478668
47.358260
47.371427
47.506615
47.397843
47.300845
47.291086
47.451359
47.462137
47.521447
47.399602
47.380319
47.430169
47.525281
47.438517
47.456725
47.446275
47.342260
47.172269
47.204180
47.251979
47.363091
47.251425
47.278833
47.337989
47.351364
47.333651
47.483756
47.465079
47.448213
47.427875
47.471985
47.461857
47.481525
47.549125
47.514406
47.574823
47.573848
47.458828
47.418919
47.492090
47.611594
47.552137
47.387376
47.288615
47.316498
47.325574
47.342235
47.422358
47.432292
47.428825
47.473728
47.539786
47.565500
47.519311
47.603626
47.649712
47.743361
47.748284
47.665679
47.664836
47.578558
47.611017
47.534836
47.605663
47.667757
47.575685
47.615831
47.616456
47.564200
47.479566
47.478971
47.463438
47.423078
47.431398
47.498596
47.536308
47.599886
47.660076
47.703269
47.666207
47.670786
47.676031
47.590118
47.472589
47.521091
47.554772
47.520259
47.532695
47.423922
47.415960
47.487198
47.407899
47.460683
47.507356
47.496819
47.506686
47.494889
47.537660
47.627189
47.690796
47.601188
47.540033
47.490830
47.483294
47.369796
47.393383
47.461976
47.513420
47.444095
47.372116
47.440578
47.464864
47.444844
47.579607
47.398412
47.341318
47.362038
47.323340
47.289446
47.238915
47.239161
47.322714
47.220016
47.322305
47.338140
47.367854
47.555757
47.607013
47.640632
47.777736
47.794815
47.653686
47.568722
47.628066
47.667185
47.721407
47.796911
47.724428
47.606004
47.631281
47.586516
47.551128
47.569912
47.511772
47.564443
47.484099
47.611005
47.622424
47.514834
47.465113
47.414328
47.475407
47.377402
47.309141
47.322441
47.447797
47.470487
47.491097
47.491853
47.498505
47.548043
47.503029
47.459818
47.432993
47.472251
47.413069
47.529231
47.596837
47.621134
47.666950
47.685994
47.618137
47.576030
47.566439
47.596741
47.773319
47.777526
47.763012
47.780829
47.714578
47.729835
47.702231
47.689327
47.804801
47.915633
47.847390
47.790628
47.872169
47.852471
47.826874
47.736444
47.713485
47.736011
47.831290
47.747016
47.777354
47.769179
47.726851
47.680172
47.630325
47.682175
47.668449
47.584451
47.543479
47.578297
47.535965
47.599893
47.621935
47.613590
47.491468
47.514167
47.497432
47.506223
47.548645
47.454981
47.550519
47.530280
47.545011
47.551628
47.453282
47.479401
47.514498
47.486681
47.475966
47.405352
47.409694
47.508949
47.639636
47.716199
47.810406
47.747266
47.819597
47.712802
47.755166
47.655022
47.512689
47.529746
47.563787
47.691310
47.710669
47.778933
47.701326
47.754076
47.807462
47.863383
47.885013
47.804797
47.829328
47.628801
47.615352
47.674458
47.645329
47.679826
47.630531
47.581303
47.469331
47.444203
47.399480
47.288936
47.355841
47.360540
47.322075
47.427189
47.477257
47.551739
47.451074
47.472788
47.489852
47.577411
47.575607
47.582564
47.577208
47.651153
47.689382
47.578633
47.636482
47.676707
47.662940
47.589492
47.592828
47.683706
47.535955
47.476585
47.543648
47.508079
47.398823
47.397676
47.484358
47.507569
47.508495
47.615311
47.618197
47.635888
47.752306
47.714685
47.750746
47.875954
47.771473
47.779444
47.685287
47.816538
47.964325
47.877627
47.904869
47.834587
48.035884
47.951158
47.916806
47.780940
47.777581
47.871319
47.926721
47.872910
47.841738
47.794780
47.790784
47.849740
47.906126
47.806617
47.799239
47.767270
47.793344
47.733023
47.612814
47.628742
47.686596
47.654115
47.627733
47.650433
47.637076
47.608336
47.617709
47.611166
47.590936
47.559742
47.608883
47.749165
47.803058
47.814508
47.814473
47.738932
47.713735
47.687693
47.663083
47.647043
47.611437
47.721529
47.897882
47.784764
47.772319
47.799136
47.727758
47.775958
47.675604
47.648244
47.586013
47.638758
47.554733
47.584111
47.773303
47.794565
47.775433
47.742822
47.793197
47.953871
48.041512
47.956689
47.904247
47.819556
47.832543
47.863440
47.807787
47.885146
47.727662
47.681275
47.631290
47.749832
47.688939
47.696313
47.622497
47.530154
47.579129
47.531999
47.619703
47.528267
47.571289
47.569424
47.460872
47.640653
47.653274
47.678259
47.700584
47.749464
47.791943
47.872656
48.010505
47.884550
47.960763
47.986090
47.943920
47.926744
47.982183
47.884828
47.838694
47.747849
47.866965
47.849360
47.747141
47.572425
47.518816
47.495025
47.549511
47.507890
47.562813
47.498100
47.610693
47.565903
47.605386
47.758363
47.724401
47.765501
47.842141
47.720411
47.778182
47.780434
47.828542
47.910150
47.851361
47.821201
47.806440
47.807171
47.860400
47.761368
47.793335
47.740785
47.664602
47.567027
47.731637
47.790814
47.656385
47.500163
47.548021
47.559200
47.672384
47.700509
47.641329
47.663244
47.623963
47.594801
47.711289
47.829550
47.743413
47.670704
47.829295
47.874820
47.804924
47.853280
47.979760
47.895185
47.801990
47.839735
47.793720
47.707766
47.768038
47.680212
47.757026
47.730721
47.713168
47.682495
47.669026
47.543051
47.529554
47.583330
47.448017
47.487919
47.459479
47.566579
47.456186
47.487708
47.441421
47.433032
47.496845
47.679490
47.751858
47.916403
47.919832
47.801739
47.719301
47.623991
47.534146
47.628352
47.681212
47.690048
47.683067
47.710402
47.741346
47.783089
47.756019
47.736293
47.682246
47.741706
47.814376
47.835895
47.768706
47.799561
47.714160
47.616349
47.649748
47.750285
47.727829
47.678348
47.594953
47.542554
47.559731
47.557799
47.549243
47.464462
47.487015
47.522524
47.460040
47.439181
47.492719
47.530402
47.633105
47.700169
47.692084
47.675605
47.609000
47.632237
47.530653
47.488248
47.464884
47.406945
47.448572
47.476136
47.544483
47.502353
47.619623
47.668415
47.658811
47.696023
47.725941
47.742359
47.711182
47.558530
47.543358
47.504954
47.409402
47.366012
47.324375
47.374549
47.404908
47.413836
47.504297
47.589016
47.541911
47.494629
47.479533
47.531895
47.631470
47.576163
47.603232
47.517082
47.635229
47.569311
47.555923
47.540894
47.451292
47.515357
47.454176
47.363947
47.399594
47.475055
47.485107
47.533287
47.544491
47.711433
47.801746
47.669267
47.589158
47.669461
47.688158
47.667503
47.572427
47.528355
47.431066
47.409473
47.464831
47.599248
47.756684
47.674091
47.648234
47.579859
47.512790
47.396373
47.351427
47.520579
47.523966
47.617492
47.539693
47.575513
47.607412
47.620619
47.601215
47.605536
47.642428
47.644349
47.577165
47.432631
47.448216
47.470426
47.316799
47.274095
47.397402
47.384286
47.441234
47.504470
47.452183
47.485405
47.483094
47.455156
47.390986
47.291871
47.383408
47.395386
47.489030
47.616621
47.608963
47.497571
47.499074
47.487628
47.481329
47.612435
47.714254
47.746145
47.942834
48.078397
48.023145
48.041178
47.973719
48.003469
48.048330
47.982902
47.912867
47.945872
47.981368
47.985912
47.918627
47.949144
47.809781
47.691042
47.623188
47.641715
47.728618
47.735875
47.697931
47.640386
47.600088
47.560491
47.493181
47.444003
47.499949
47.463151
47.464623
47.512052
47.648756
47.502418
47.402856
47.389656
47.451566
47.473874
47.583438
47.603060
47.524596
47.626886
47.534534
47.504339
47.475425
47.427924
47.406142
47.358037
47.393076
47.434500
47.456310
47.470064
47.475479
47.392400
47.531535
47.654710
47.641659
47.623408
47.635039
47.612830
47.608905
47.507902
47.533308
47.542604
47.412543
47.433764
47.509164
47.569117
47.549224
47.519330
47.487043
47.441117
47.415188
47.476141
47.506626
47.578546
47.429107
47.416353
47.476480
47.527106
47.553673
47.579971
47.552674
47.620801
47.573654
47.654583
47.701172
47.738764
47.676094
47.701676
47.691409
47.645948
47.737654
47.664670
47.778290
47.830739
47.784181
47.760765
47.785063
47.806376
47.792713
47.899087
47.901921
47.919784
47.853674
47.861217
47.843122
47.804953
47.808390
47.786711
47.804726
47.764979
47.703938
47.606914
47.660162
47.584221
47.461653
47.409298
47.427641
47.562453
47.637666
47.541118
47.467027
47.341947
47.385370
47.442827
47.509950
47.627170
47.630068
47.577315
47.607340
47.511529
47.577881
47.635046
47.639758
47.582347
47.645432
47.630773
47.580507
47.607606
47.627953
47.653245
47.691693
47.670864
47.689607
47.724614
47.666182
47.702771
47.729106
47.826092
47.819902
47.790709
47.844709
47.767825
47.645916
47.611262
47.553678
47.539722
47.605511
47.611926
47.614576
47.595661
47.632067
47.519999
47.521752
47.580298
47.437622
47.518246
47.635512
47.726995
47.646512
47.681304
47.715664
47.768441
47.942381
47.812898
47.696973
47.625945
47.649452
47.688460
47.683546
47.723875
47.795965
47.733783
47.712523
47.681958
47.611588
47.589957
47.586366
47.594514
47.507553
47.500051
47.477458
47.523845
47.692563
47.624334
47.578660
47.572771
47.618264
47.621724
47.576325
47.623093
47.689982
47.688713
47.671199
47.737376
47.686925
47.664836
47.642945
47.539076
47.416042
47.420771
47.524365
47.479840
47.563180
47.605178
47.745923
47.694378
47.604321
47.572126
47.612255
47.683380
47.738383
47.748054
47.764679
47.804834
47.794631
47.802559
47.810905
47.770630
47.686671
47.669867
47.616930
47.662784
47.668756
47.694189
47.712984
47.703138
47.606070
47.613809
47.577516
47.590322
47.604425
47.623424
47.649948
47.610521
47.499957
47.432363
47.567623
47.643657
47.770134
47.772239
47.681299
47.784061
47.792777
47.735568
47.750119
47.741501
47.671223
47.606963
47.591772
47.574571
47.674504
47.795657
47.840628
47.771902
47.771237
47.748106
47.771027
47.724514
47.814960
47.881989
47.901544
47.795967
47.780728
47.741637
47.704745
47.741646
47.711759
47.715664
47.735250
47.624270
47.497989
47.542035
47.561567
47.698977
47.769324
47.728906
47.854631
47.791178
47.875112
47.936799
47.931498
47.928093
47.839742
47.724594
47.647072
47.572745
47.630260
47.675750
47.755615
47.708127
47.727722
47.710978
47.803263
47.764924
47.736566
47.714659
47.795442
47.810556
47.747497
47.828363
47.716149
47.749698
47.731691
47.735254
47.761867
47.725852
47.719415
47.649015
47.577203
47.698592
47.724526
47.782339
47.871566
47.868794
47.852933
47.799893
47.855538
47.747678
47.761766
47.622350
47.615549
47.465681
47.437415
47.312702
47.288240
47.427854
47.450925
47.693325
47.718343
47.685652
47.750191
47.773680
47.682616
47.603655
47.597279
47.590139
47.560638
47.480131
47.361590
47.419790
47.300821
47.332078
47.407292
47.409790
47.405718
47.545925
47.591868
47.702411
47.682312
47.666483
47.811893
47.628909
47.737573
47.816923
47.905563
47.879389
47.772512
47.783654
47.763728
47.750479
47.791514
47.774028
47.732091
47.779950
47.866829
47.923849
47.927002
47.766135
47.631277
47.603984
47.713855
47.655003
47.622304
47.740151
47.888487
47.962206
47.928746
47.834717
47.790362
47.835037
47.856496
47.753804
47.770406
47.864613
47.872282
47.902031
47.894989
47.953980
47.978566
47.961760
47.832706
47.759884
47.769484
47.672314
47.590809
47.623362
47.680974
47.695889
47.632559
47.640823
47.604420
47.497814
47.596314
47.564866
47.600654
47.693971
47.661288
47.716804
47.687717
47.712499
47.628803
47.605548
47.573122
47.666236
47.610774
47.664765
47.700854
47.773806
47.871551
47.858648
47.843339
47.814012
47.834680
47.873993
47.868200
47.813684
47.837938
47.915820
47.851064
47.760054
47.835666
47.824508
47.885908
47.918598
47.953489
47.999019
47.828103
47.774014
47.748943
47.700424
47.648231
47.585663
47.566791
47.509178
47.435751
47.479003
47.547186
47.484719
47.389981
47.385693
47.447157
47.409633
47.440045
47.487129
47.428735
47.496276
47.258770
47.352835
47.449131
47.398014
47.487228
47.426999
47.346059
47.418452
47.524160
47.464200
47.410340
47.488859
47.532024
47.617208
47.744262
47.729518
47.697844
47.690415
47.667146
47.595174
47.538175
47.435315
47.457444
47.467385
47.408860
47.398520
47.507700
47.432220
47.521639
47.520729
47.486352
47.495723
47.491686
47.512467
47.465733
47.409436
47.407638
47.426320
47.562275
47.665537
47.731520
47.776249
47.786555
47.700924
47.633462
47.611335
47.596528
47.643602
47.635626
47.527200
47.439392
47.410520
47.501505
47.550209
47.511268
47.574627
47.637535
47.671875
47.604590
47.665892
47.658359
47.591869
47.721262
47.667703
47.629189
47.535136
47.385577
47.335757
47.458127
47.571594
47.669323
47.567118
47.588173
47.583724
47.595880
47.643713
47.608564
47.704180
47.665593
47.597665
47.581459
47.481426
47.598761
47.714641
47.766577
47.741307
47.748000
47.649232
47.545497
47.461970
47.470425
47.455487
47.652441
47.566249
47.476112
47.423814
47.345797
47.270341
47.266196
47.397646
47.635797
47.736691
47.693105
47.699804
47.593047
47.600839
47.656058
47.652148
47.649283
47.660868
47.617736
